<?xml version="1.0" encoding="UTF-8" standalone="no"?> <svg xmlns="http://www.w3.org/2000/svg" xmlns:xlink="http://www.w3.org/1999/xlink" width="560pt" height="307pt" viewBox="0.00 0.00 560.00 306.90">
<g id="graph0" class="graph" transform="scale(1 1) rotate(0) translate(4 302.9)">
<title>%0</title>
<polygon fill="#ffffff" stroke="transparent" points="-4,4 -4,-302.9 556,-302.9 556,4 -4,4"></polygon>
<g id="clust1" class="cluster">
<title>cluster</title>
<polygon fill="#234178" fill-opacity="0.184314" stroke="#000000" points="8,-8 8,-290.9 544,-290.9 544,-8 8,-8"></polygon>
<text text-anchor="middle" x="276" y="-274.3" font-family="Times,serif" font-size="14.00" fill="#000000">Global</text>
</g>
<g id="clust2" class="cluster">
<title>cluster_1</title>
<polygon fill="#234178" fill-opacity="0.184314" stroke="#000000" points="248,-181.3 248,-258.1 472,-258.1 472,-181.3 248,-181.3"></polygon>
<text text-anchor="middle" x="360" y="-241.5" font-family="Times,serif" font-size="14.00" fill="#000000">CellType[ct1]</text>
</g>
<g id="clust3" class="cluster">
<title>cluster_2</title>
<polygon fill="#234178" fill-opacity="0.184314" stroke="#000000" points="16,-181.3 16,-258.1 240,-258.1 240,-181.3 16,-181.3"></polygon>
<text text-anchor="middle" x="128" y="-241.5" font-family="Times,serif" font-size="14.00" fill="#000000">CellType[ct2]</text>
</g>
<!-- Gnuplotter_0_100 -->
<g id="node1" class="node">
<title>Gnuplotter_0_100</title>
<g id="a_node1">">
<polygon fill="#fffea3" stroke="transparent" points="460,-66 388,-66 388,-16 460,-16 460,-66"></polygon>
<text text-anchor="start" x="391.507" y="-48.5" font-family="times" font-size="15.00" fill="#000000">Gnuplotter</text>
<text text-anchor="start" x="412.75" y="-24.5" font-family="times" font-size="15.00" fill="#000000">100</text>
<polygon fill="#000000" stroke="#000000" points="388,-41 388,-41 460,-41 460,-41 388,-41"></polygon>
<polygon fill="none" stroke="#000000" points="388,-16 388,-66 460,-66 460,-16 388,-16"></polygon>
</g>
</g>
<!-- CPM_0_1 -->
<g id="node2" class="node">
<title>CPM_0_1</title>
<g id="a_node2">
<polygon fill="#fffea3" stroke="#000000" points="482,-182.5 482,-232.1 536,-232.1 536,-182.5 482,-182.5"></polygon>
<text text-anchor="middle" x="508.7819" y="-215.5" font-family="Times,serif" font-size="14.00" fill="#000000">CPM</text>
<polyline fill="none" stroke="#000000" points="482,-207.3 535.5638,-207.3 "></polyline>
<text text-anchor="middle" x="508.7819" y="-190.7" font-family="Times,serif" font-size="14.00" fill="#000000">1</text>
</g>
</g>
<!-- cell_center_0 -->
<g id="node3" class="node">
<title>cell_center_0</title>
<ellipse fill="#b5b426" stroke="#000000" cx="303" cy="-124" rx="50.9588" ry="18"></ellipse>
<ellipse fill="none" stroke="#000000" cx="303" cy="-124" rx="54.9572" ry="22"></ellipse>
<text text-anchor="middle" x="303" y="-119.8" font-family="Times,serif" font-size="14.00" fill="#000000">cell.center</text>
</g>
<!-- CPM_0_1&#45;&gt;cell_center_0 -->
<g id="edge1" class="edge">
<title>CPM_0_1-&gt;cell_center_0</title>
<path fill="none" stroke="#8f100d" stroke-width="3" d="M481.7667,-184.6963C479.8615,-183.4761 477.9304,-182.3303 476,-181.3 431.0762,-157.3238 415.3021,-162.1219 367,-146 362.812,-144.6022 358.4744,-143.1406 354.1215,-141.6643"></path>
<polygon fill="#8f100d" stroke="#8f100d" stroke-width="3" points="355.2143,-138.3391 344.6198,-138.4275 352.957,-144.9652 355.2143,-138.3391"></polygon>
</g>
<!-- cell_type_0 -->
<g id="node4" class="node">
<title>cell_type_0</title>
<ellipse fill="#d3d247" stroke="#000000" cx="424" cy="-124" rx="44.0361" ry="18"></ellipse>
<ellipse fill="none" stroke="#000000" cx="424" cy="-124" rx="48.0377" ry="22"></ellipse>
<text text-anchor="middle" x="424" y="-119.8" font-family="Times,serif" font-size="14.00" fill="#000000">cell.type</text>
</g>
<!-- CPM_0_1&#45;&gt;cell_type_0 -->
<g id="edge2" class="edge">
<title>CPM_0_1-&gt;cell_type_0</title>
<path fill="none" stroke="#8f100d" stroke-width="3" d="M483.4972,-182.3073C473.4236,-172.4351 461.8247,-161.0682 451.5585,-151.0074"></path>
<polygon fill="#8f100d" stroke="#8f100d" stroke-width="3" points="453.9515,-148.452 444.3596,-143.9524 449.052,-153.4515 453.9515,-148.452"></polygon>
</g>
<!-- cell_type_0&#45;&gt;Gnuplotter_0_100 -->
<g id="edge5" class="edge">
<title>cell_type_0-&gt;Gnuplotter_0_100</title>
<path fill="none" stroke="#112c5f" stroke-width="2" d="M424,-101.7575C424,-93.974 424,-85.0292 424,-76.4385"></path>
<polygon fill="#112c5f" stroke="#112c5f" stroke-width="2" points="427.5001,-76.2372 424,-66.2373 420.5001,-76.2373 427.5001,-76.2372"></polygon>
</g>
<!-- cell_center_1 -->
<g id="node5" class="node">
<title>cell_center_1</title>
<ellipse fill="#b5b426" stroke="#000000" cx="307" cy="-207.3" rx="50.9572" ry="18"></ellipse>
<text text-anchor="middle" x="307" y="-203.1" font-family="Times,serif" font-size="14.00" fill="#000000">cell.center</text>
</g>
<!-- cell_center_1&#45;&gt;cell_center_0 -->
<g id="edge3" class="edge">
<title>cell_center_1-&gt;cell_center_0</title>
<path fill="none" stroke="#38568c" stroke-dasharray="5,2" d="M306.1321,-189.2251C305.5255,-176.5927 304.7117,-159.6462 304.0657,-146.1929"></path>
</g>
<!-- cell_type_1 -->
<g id="node6" class="node">
<title>cell_type_1</title>
<g id="a_node6">
<ellipse fill="#d3d247" stroke="#000000" cx="420" cy="-207.3" rx="44.0377" ry="18"></ellipse>
<text text-anchor="middle" x="420" y="-203.1" font-family="Times,serif" font-size="14.00" fill="#000000">cell.type</text>
</g>
</g>
<!-- cell_type_1&#45;&gt;cell_type_0 -->
<g id="edge6" class="edge">
<title>cell_type_1-&gt;cell_type_0</title>
<path fill="none" stroke="#38568c" stroke-dasharray="5,2" d="M420.8679,-189.2251C421.4745,-176.5927 422.2883,-159.6462 422.9343,-146.1929"></path>
</g>
<!-- cell_center_2 -->
<g id="node7" class="node">
<title>cell_center_2</title>
<ellipse fill="#b5b426" stroke="#000000" cx="75" cy="-207.3" rx="50.9572" ry="18"></ellipse>
<text text-anchor="middle" x="75" y="-203.1" font-family="Times,serif" font-size="14.00" fill="#000000">cell.center</text>
</g>
<!-- cell_center_2&#45;&gt;cell_center_0 -->
<g id="edge4" class="edge">
<title>cell_center_2-&gt;cell_center_0</title>
<path fill="none" stroke="#38568c" stroke-dasharray="5,2" d="M106.5652,-193.0577C115.6795,-189.0992 125.6814,-184.9015 135,-181.3 176.9668,-165.0804 225.7083,-148.7241 259.8471,-137.6625"></path>
</g>
<!-- cell_type_2 -->
<g id="node8" class="node">
<title>cell_type_2</title>
<g id="a_node8">
<ellipse fill="#d3d247" stroke="#000000" cx="188" cy="-207.3" rx="44.0377" ry="18"></ellipse>
<text text-anchor="middle" x="188" y="-203.1" font-family="Times,serif" font-size="14.00" fill="#000000">cell.type</text>
</g>
</g>
<!-- cell_type_2&#45;&gt;cell_type_0 -->
<g id="edge7" class="edge">
<title>cell_type_2-&gt;cell_type_0</title>
<path fill="none" stroke="#38568c" stroke-dasharray="5,2" d="M215.8387,-193.3387C224.7158,-189.1685 234.6601,-184.7844 244,-181.3 297.286,-161.4207 313.0842,-164.1017 367,-146 373.7373,-143.738 380.8524,-141.1531 387.686,-138.5692"></path>
</g>
</g>
</svg>