<?xml version="1.0" encoding="UTF-8" standalone="no"?>
<!DOCTYPE svg PUBLIC "-//W3C//DTD SVG 1.1//EN"
 "http://www.w3.org/Graphics/SVG/1.1/DTD/svg11.dtd">
<!-- Generated by graphviz version 3.0.0 (20220226.1711)
 -->
<!-- Pages: 1 -->
<svg width="2844pt" height="800pt"
 viewBox="0.00 0.00 2844.00 800.00" xmlns="http://www.w3.org/2000/svg" xmlns:xlink="http://www.w3.org/1999/xlink">
<g id="graph0" class="graph" transform="scale(1 1) rotate(0) translate(4 796)">
<polygon fill="white" stroke="transparent" points="-4,4 -4,-796 2840,-796 2840,4 -4,4"/>
<g id="clust1" class="cluster">
<title>cluster</title>
<polygon fill="#234178" fill-opacity="0.184314" stroke="black" points="8,-8 8,-784 2828,-784 2828,-8 8,-8"/>
<text text-anchor="middle" x="1418" y="-768.8" font-family="Times,serif" font-size="14.00">Global</text>
</g>
<g id="clust3" class="cluster">
<title>cluster_2</title>
<polygon fill="#234178" fill-opacity="0.184314" stroke="black" points="208,-84 208,-694 1008,-694 1008,-84 208,-84"/>
<text text-anchor="middle" x="608" y="-678.8" font-family="Times,serif" font-size="14.00">CellType[dividingcell]</text>
</g>
<g id="clust4" class="cluster">
<title>cluster_cpm2</title>
<polygon fill="#234178" fill-opacity="0.184314" stroke="black" points="874,-92 874,-179 1000,-179 1000,-92 874,-92"/>
<text text-anchor="middle" x="937" y="-163.8" font-family="Times,serif" font-size="14.00">CPM plugins</text>
</g>
<g id="clust6" class="cluster">
<title>cluster_4</title>
<polygon fill="#234178" fill-opacity="0.184314" stroke="black" points="924,-251 924,-338 1000,-338 1000,-251 924,-251"/>
<text text-anchor="middle" x="962" y="-322.8" font-family="Times,serif" font-size="14.00">System</text>
</g>
<!-- Gnuplotter_0_50 -->
<g id="node1" class="node">
<title>Gnuplotter_0_50</title>
<g id="a_node1"><a xlink:href="morph://MorpheusModel/Analysis/Gnuplotter" xlink:title="&lt;TABLE&gt;">
<polygon fill="#fffea3" stroke="transparent" points="1334.5,-64 1255.5,-64 1255.5,-16 1334.5,-16 1334.5,-64"/>
<text text-anchor="start" x="1260" y="-48" font-family="times" font-size="15.00">Gnuplotter</text>
<text text-anchor="start" x="1287" y="-25" font-family="times" font-size="15.00">50</text>
<polygon fill="black" stroke="black" points="1256,-40 1256,-40 1335,-40 1335,-40 1256,-40"/>
<polygon fill="none" stroke="black" points="1255.5,-16 1255.5,-64 1334.5,-64 1334.5,-16 1255.5,-16"/>
</a>
</g>
</g>
<!-- CPM_0_1 -->
<g id="node2" class="node">
<title>CPM_0_1</title>
<g id="a_node2"><a xlink:href="morph://MorpheusModel/CPM" xlink:title="&lt;TABLE&gt;">
<polygon fill="#fffea3" stroke="transparent" points="2658,-673 2600,-673 2600,-617 2658,-617 2658,-673"/>
<text text-anchor="start" x="2612" y="-653" font-family="times" font-size="15.00">CPM</text>
<text text-anchor="start" x="2624.5" y="-630" font-family="times" font-size="15.00">1</text>
<polygon fill="black" stroke="black" points="2608,-645 2608,-645 2650,-645 2650,-645 2608,-645"/>
<polygon fill="none" stroke="black" points="2608,-621 2608,-669 2650,-669 2650,-621 2608,-621"/>
</a>
</g>
</g>
<!-- cell_center_0 -->
<g id="node22" class="node">
<title>cell_center_0</title>
<ellipse fill="#b5b426" stroke="black" cx="1375" cy="-461.5" rx="47.4" ry="18"/>
<ellipse fill="none" stroke="black" cx="1375" cy="-461.5" rx="51.39" ry="22"/>
<text text-anchor="middle" x="1375" y="-457.8" font-family="Times,serif" font-size="14.00">cell.center</text>
</g>
<!-- CPM_0_1&#45;&gt;cell_center_0 -->
<g id="edge7" class="edge">
<title>CPM_0_1&#45;&gt;cell_center_0</title>
<path fill="none" stroke="#8f100d" stroke-width="3" d="M2599.65,-644.25C2463.99,-644.61 1885.33,-637.44 1440,-497 1430.5,-494.01 1420.77,-489.64 1411.81,-485.01"/>
<polygon fill="#8f100d" stroke="#8f100d" stroke-width="3" points="1413.27,-481.82 1402.81,-480.14 1409.94,-487.98 1413.27,-481.82"/>
</g>
<!-- cell_type_0 -->
<g id="node25" class="node">
<title>cell_type_0</title>
<ellipse fill="#d3d247" stroke="black" cx="1133" cy="-557" rx="40.9" ry="18"/>
<ellipse fill="none" stroke="black" cx="1133" cy="-557" rx="44.89" ry="22"/>
<text text-anchor="middle" x="1133" y="-553.3" font-family="Times,serif" font-size="14.00">cell.type</text>
</g>
<!-- CPM_0_1&#45;&gt;cell_type_0 -->
<g id="edge8" class="edge">
<title>CPM_0_1&#45;&gt;cell_type_0</title>
<path fill="none" stroke="#8f100d" stroke-width="3" d="M2599.97,-644.14C2421.37,-644.8 1470.01,-645.23 1187,-581 1182.34,-579.94 1177.57,-578.5 1172.9,-576.85"/>
<polygon fill="#8f100d" stroke="#8f100d" stroke-width="3" points="1174.08,-573.55 1163.49,-573.23 1171.56,-580.09 1174.08,-573.55"/>
</g>
<!-- DirectedMotion_2_9504528359561386930 -->
<g id="node50" class="node">
<title>DirectedMotion_2_9504528359561386930</title>
<g id="a_node50"><a xlink:href="morph://MorpheusModel/CellTypes/CellType[1]/DirectedMotion" xlink:title="&lt;TABLE&gt;">
<polygon fill="#fffea3" stroke="transparent" points="991.5,-148 882.5,-148 882.5,-100 991.5,-100 991.5,-148"/>
<text text-anchor="start" x="887" y="-132" font-family="times" font-size="15.00">DirectedMotion</text>
<text text-anchor="start" x="888" y="-110" font-family="times" font-style="italic" font-size="15.00">&quot;cell migration&quot;</text>
<polygon fill="none" stroke="black" points="882.5,-100 882.5,-148 991.5,-148 991.5,-100 882.5,-100"/>
</a>
</g>
</g>
<!-- CPM_0_1&#45;&gt;DirectedMotion_2_9504528359561386930 -->
<g id="edge6" class="edge">
<title>CPM_0_1&#45;&gt;DirectedMotion_2_9504528359561386930</title>
<path fill="none" stroke="#38568c" stroke-dasharray="5,2" d="M2647.99,-616.93C2697.73,-542.68 2820.15,-335.73 2703,-251 2653.11,-214.91 1656.5,-226.03 1595,-223 1328.38,-209.85 1241.11,-284.73 996,-179"/>
</g>
<!-- Logger_0_1 -->
<g id="node3" class="node">
<title>Logger_0_1</title>
<g id="a_node3"><a xlink:href="morph://MorpheusModel/Analysis/Logger" xlink:title="&lt;TABLE&gt;">
<polygon fill="#fffea3" stroke="transparent" points="2693.5,-307 2638.5,-307 2638.5,-259 2693.5,-259 2693.5,-307"/>
<text text-anchor="start" x="2643" y="-291" font-family="times" font-size="15.00">Logger</text>
<text text-anchor="start" x="2662" y="-268" font-family="times" font-size="15.00">1</text>
<polygon fill="black" stroke="black" points="2639,-283 2639,-283 2694,-283 2694,-283 2639,-283"/>
<polygon fill="none" stroke="black" points="2638.5,-259 2638.5,-307 2693.5,-307 2693.5,-259 2638.5,-259"/>
</a>
</g>
</g>
<!-- A2_0 -->
<g id="node4" class="node">
<title>A2_0</title>
<g id="a_node4"><a xlink:href="morph://MorpheusModel/Global/Constant[14]" xlink:title="A2">
<ellipse fill="#d3d247" stroke="black" cx="2685" cy="-731" rx="27" ry="18"/>
<text text-anchor="middle" x="2685" y="-727.3" font-family="Times,serif" font-size="14.00">A2</text>
</a>
</g>
</g>
<!-- A2_0&#45;&gt;CPM_0_1 -->
<g id="edge1" class="edge">
<title>A2_0&#45;&gt;CPM_0_1</title>
<path fill="none" stroke="#112c5f" stroke-width="2" d="M2674.47,-714.2C2668.36,-705.04 2660.4,-693.1 2652.85,-681.78"/>
<polygon fill="#112c5f" stroke="#112c5f" stroke-width="2" points="2655.66,-679.68 2647.2,-673.3 2649.83,-683.56 2655.66,-679.68"/>
</g>
<!-- A3_0 -->
<g id="node5" class="node">
<title>A3_0</title>
<g id="a_node5"><a xlink:href="morph://MorpheusModel/Global/Constant[15]" xlink:title="A3">
<ellipse fill="#d3d247" stroke="black" cx="2613" cy="-731" rx="27" ry="18"/>
<text text-anchor="middle" x="2613" y="-727.3" font-family="Times,serif" font-size="14.00">A3</text>
</a>
</g>
</g>
<!-- A3_0&#45;&gt;CPM_0_1 -->
<g id="edge2" class="edge">
<title>A3_0&#45;&gt;CPM_0_1</title>
<path fill="none" stroke="#112c5f" stroke-width="2" d="M2616.24,-713C2617.87,-704.44 2619.91,-693.71 2621.88,-683.36"/>
<polygon fill="#112c5f" stroke="#112c5f" stroke-width="2" points="2625.38,-683.7 2623.81,-673.23 2618.5,-682.39 2625.38,-683.7"/>
</g>
<!-- C_0 -->
<g id="node6" class="node">
<title>C_0</title>
<g id="a_node6"><a xlink:href="morph://MorpheusModel/Global/Constant[3]" xlink:title="C">
<ellipse fill="#d3d247" stroke="black" cx="1331" cy="-368" rx="27" ry="18"/>
<text text-anchor="middle" x="1331" y="-364.3" font-family="Times,serif" font-size="14.00">C</text>
</a>
</g>
</g>
<!-- System_4_1 -->
<g id="node68" class="node">
<title>System_4_1</title>
<g id="a_node68"><a xlink:href="morph://MorpheusModel/CellTypes/CellType[1]/System" xlink:title="&lt;TABLE&gt;">
<polygon fill="#fffea3" stroke="transparent" points="991.5,-307 932.5,-307 932.5,-259 991.5,-259 991.5,-307"/>
<text text-anchor="start" x="937" y="-291" font-family="times" font-size="15.00">System</text>
<text text-anchor="start" x="958" y="-268" font-family="times" font-size="15.00">1</text>
<polygon fill="black" stroke="black" points="933,-283 933,-283 992,-283 992,-283 933,-283"/>
<polygon fill="none" stroke="black" points="932.5,-259 932.5,-307 991.5,-307 991.5,-259 932.5,-259"/>
</a>
</g>
</g>
<!-- C_0&#45;&gt;System_4_1 -->
<g id="edge9" class="edge">
<title>C_0&#45;&gt;System_4_1</title>
<path fill="none" stroke="#112c5f" stroke-width="2" d="M1313.12,-354.21C1307.57,-350.91 1301.26,-347.78 1295,-346 1263.04,-336.9 1024.88,-354.45 996,-338 987.21,-332.99 980.37,-324.69 975.2,-316.08"/>
<polygon fill="#112c5f" stroke="#112c5f" stroke-width="2" points="978.21,-314.29 970.41,-307.12 972.04,-317.59 978.21,-314.29"/>
</g>
<!-- C1_0 -->
<g id="node7" class="node">
<title>C1_0</title>
<g id="a_node7"><a xlink:href="morph://MorpheusModel/Global/Constant[16]" xlink:title="C1">
<ellipse fill="#d3d247" stroke="black" cx="1775" cy="-205" rx="27" ry="18"/>
<text text-anchor="middle" x="1775" y="-201.3" font-family="Times,serif" font-size="14.00">C1</text>
</a>
</g>
</g>
<!-- C1_0&#45;&gt;DirectedMotion_2_9504528359561386930 -->
<g id="edge3" class="edge">
<title>C1_0&#45;&gt;DirectedMotion_2_9504528359561386930</title>
<path fill="none" stroke="#112c5f" stroke-width="2" d="M1754.99,-192.7C1749.93,-190.36 1744.39,-188.24 1739,-187 1698.77,-177.75 1034.4,-194.16 996,-179 983.36,-174.01 971.77,-164.95 962.26,-155.65"/>
<polygon fill="#112c5f" stroke="#112c5f" stroke-width="2" points="964.57,-153 955.11,-148.22 959.52,-157.85 964.57,-153"/>
</g>
<!-- C2_0 -->
<g id="node8" class="node">
<title>C2_0</title>
<g id="a_node8"><a xlink:href="morph://MorpheusModel/Global/Constant[17]" xlink:title="C2">
<ellipse fill="#d3d247" stroke="black" cx="1703" cy="-205" rx="27" ry="18"/>
<text text-anchor="middle" x="1703" y="-201.3" font-family="Times,serif" font-size="14.00">C2</text>
</a>
</g>
</g>
<!-- C2_0&#45;&gt;DirectedMotion_2_9504528359561386930 -->
<g id="edge4" class="edge">
<title>C2_0&#45;&gt;DirectedMotion_2_9504528359561386930</title>
<path fill="none" stroke="#112c5f" stroke-width="2" d="M1682.99,-192.7C1677.92,-190.37 1672.39,-188.24 1667,-187 1630.67,-178.63 1030.67,-192.71 996,-179 983.37,-174 971.77,-164.94 962.27,-155.64"/>
<polygon fill="#112c5f" stroke="#112c5f" stroke-width="2" points="964.57,-152.99 955.11,-148.22 959.53,-157.85 964.57,-152.99"/>
</g>
<!-- C3_0 -->
<g id="node9" class="node">
<title>C3_0</title>
<g id="a_node9"><a xlink:href="morph://MorpheusModel/Global/Constant[18]" xlink:title="C3">
<ellipse fill="#d3d247" stroke="black" cx="1631" cy="-205" rx="27" ry="18"/>
<text text-anchor="middle" x="1631" y="-201.3" font-family="Times,serif" font-size="14.00">C3</text>
</a>
</g>
</g>
<!-- C3_0&#45;&gt;DirectedMotion_2_9504528359561386930 -->
<g id="edge5" class="edge">
<title>C3_0&#45;&gt;DirectedMotion_2_9504528359561386930</title>
<path fill="none" stroke="#112c5f" stroke-width="2" d="M1609.78,-193.41C1603.56,-190.81 1596.64,-188.37 1590,-187 1557.68,-180.34 1026.68,-191.16 996,-179 983.37,-173.99 971.78,-164.93 962.27,-155.63"/>
<polygon fill="#112c5f" stroke="#112c5f" stroke-width="2" points="964.57,-152.98 955.12,-148.21 959.53,-157.84 964.57,-152.98"/>
</g>
<!-- Cr_0 -->
<g id="node10" class="node">
<title>Cr_0</title>
<ellipse fill="#d3d247" stroke="black" cx="1700" cy="-124" rx="27" ry="18"/>
<ellipse fill="none" stroke="black" cx="1700" cy="-124" rx="31" ry="22"/>
<text text-anchor="middle" x="1700" y="-120.3" font-family="Times,serif" font-size="14.00">Cr</text>
</g>
<!-- Cr_0&#45;&gt;Cr_0 -->
<g id="edge12" class="edge">
<title>Cr_0&#45;&gt;Cr_0</title>
<path fill="none" stroke="#38568c" stroke-dasharray="5,2" d="M1723.7,-138.28C1736.87,-140.95 1749,-136.19 1749,-124 1749,-111.81 1736.87,-107.05 1723.7,-109.72"/>
</g>
<!-- NeighborhoodReporter_2_1 -->
<g id="node48" class="node">
<title>NeighborhoodReporter_2_1</title>
<g id="a_node48"><a xlink:href="morph://MorpheusModel/CellTypes/CellType[1]/NeighborhoodReporter[2]" xlink:title="&lt;TABLE&gt;">
<polygon fill="#fffea3" stroke="transparent" points="928,-485.5 768,-485.5 768,-437.5 928,-437.5 928,-485.5"/>
<text text-anchor="start" x="772" y="-469.5" font-family="times" font-size="15.00">NeighborhoodReporter</text>
<text text-anchor="start" x="843.5" y="-446.5" font-family="times" font-size="15.00">1</text>
<polygon fill="black" stroke="black" points="768,-461.5 768,-461.5 928,-461.5 928,-461.5 768,-461.5"/>
<polygon fill="none" stroke="black" points="768,-437.5 768,-485.5 928,-485.5 928,-437.5 768,-437.5"/>
</a>
</g>
</g>
<!-- Cr_0&#45;&gt;NeighborhoodReporter_2_1 -->
<g id="edge13" class="edge">
<title>Cr_0&#45;&gt;NeighborhoodReporter_2_1</title>
<path fill="none" stroke="#112c5f" stroke-width="2" d="M1713.62,-143.9C1723.42,-156 1737.74,-170.9 1754,-179 1776.89,-190.41 1785.96,-181.75 1811,-187 2066.73,-240.61 2219.19,-137.75 2377,-346 2388.81,-361.59 2390.65,-376 2377,-390 2321.13,-447.29 1015.47,-410.31 937,-426 927.59,-427.88 917.89,-430.68 908.5,-433.88"/>
<polygon fill="#112c5f" stroke="#112c5f" stroke-width="2" points="907.1,-430.66 898.86,-437.33 909.46,-437.25 907.1,-430.66"/>
</g>
<!-- De_0 -->
<g id="node11" class="node">
<title>De_0</title>
<g id="a_node11"><a xlink:href="morph://MorpheusModel/Global/Constant[6]" xlink:title="De">
<ellipse fill="#d3d247" stroke="black" cx="1259" cy="-368" rx="27" ry="18"/>
<text text-anchor="middle" x="1259" y="-364.3" font-family="Times,serif" font-size="14.00">De</text>
</a>
</g>
</g>
<!-- De_0&#45;&gt;System_4_1 -->
<g id="edge15" class="edge">
<title>De_0&#45;&gt;System_4_1</title>
<path fill="none" stroke="#112c5f" stroke-width="2" d="M1241.11,-354.24C1235.56,-350.94 1229.26,-347.81 1223,-346 1198.76,-338.99 1017.88,-350.59 996,-338 987.23,-332.96 980.4,-324.64 975.23,-316.03"/>
<polygon fill="#112c5f" stroke="#112c5f" stroke-width="2" points="978.24,-314.24 970.43,-307.08 972.07,-317.55 978.24,-314.24"/>
</g>
<!-- Dr_0 -->
<g id="node12" class="node">
<title>Dr_0</title>
<g id="a_node12"><a xlink:href="morph://MorpheusModel/Global/Constant[10]" xlink:title="Dr">
<ellipse fill="#d3d247" stroke="black" cx="1187" cy="-368" rx="27" ry="18"/>
<text text-anchor="middle" x="1187" y="-364.3" font-family="Times,serif" font-size="14.00">Dr</text>
</a>
</g>
</g>
<!-- Dr_0&#45;&gt;System_4_1 -->
<g id="edge16" class="edge">
<title>Dr_0&#45;&gt;System_4_1</title>
<path fill="none" stroke="#112c5f" stroke-width="2" d="M1169.09,-354.31C1163.54,-351.01 1157.24,-347.86 1151,-346 1117.95,-336.14 1025.75,-355.44 996,-338 987.28,-332.89 980.45,-324.55 975.28,-315.95"/>
<polygon fill="#112c5f" stroke="#112c5f" stroke-width="2" points="978.29,-314.16 970.48,-307 972.12,-317.47 978.29,-314.16"/>
</g>
<!-- Dy_0 -->
<g id="node13" class="node">
<title>Dy_0</title>
<g id="a_node13"><a xlink:href="morph://MorpheusModel/Global/Constant[2]" xlink:title="Dy">
<ellipse fill="#d3d247" stroke="black" cx="1115" cy="-368" rx="27" ry="18"/>
<text text-anchor="middle" x="1115" y="-364.3" font-family="Times,serif" font-size="14.00">Dy</text>
</a>
</g>
</g>
<!-- Dy_0&#45;&gt;System_4_1 -->
<g id="edge17" class="edge">
<title>Dy_0&#45;&gt;System_4_1</title>
<path fill="none" stroke="#112c5f" stroke-width="2" d="M1097.04,-354.48C1091.49,-351.19 1085.2,-348 1079,-346 1061.37,-340.31 1011.77,-347.72 996,-338 987.46,-332.74 980.71,-324.44 975.55,-315.92"/>
<polygon fill="#112c5f" stroke="#112c5f" stroke-width="2" points="978.59,-314.18 970.74,-307.07 972.44,-317.52 978.59,-314.18"/>
</g>
<!-- E_0 -->
<g id="node14" class="node">
<title>E_0</title>
<ellipse fill="#d3d247" stroke="black" cx="2771" cy="-731" rx="27" ry="18"/>
<ellipse fill="none" stroke="black" cx="2771" cy="-731" rx="31" ry="22"/>
<text text-anchor="middle" x="2771" y="-727.3" font-family="Times,serif" font-size="14.00">E</text>
</g>
<!-- E_0&#45;&gt;Gnuplotter_0_50 -->
<g id="edge20" class="edge">
<title>E_0&#45;&gt;Gnuplotter_0_50</title>
<path fill="none" stroke="#112c5f" stroke-width="2" d="M2783.79,-710.78C2786.85,-705.51 2789.85,-699.68 2792,-694 2813.83,-636.37 2819,-619.62 2819,-558 2819,-558 2819,-558 2819,-204 2819,-52.19 1607.9,-41.51 1344.97,-40.98"/>
<polygon fill="#112c5f" stroke="#112c5f" stroke-width="2" points="1344.6,-37.48 1334.59,-40.96 1344.59,-44.48 1344.6,-37.48"/>
</g>
<!-- E_0&#45;&gt;CPM_0_1 -->
<g id="edge18" class="edge">
<title>E_0&#45;&gt;CPM_0_1</title>
<path fill="none" stroke="#112c5f" stroke-width="2" d="M2745.17,-718.42C2730.97,-711.77 2713.21,-702.97 2698,-694 2687.49,-687.8 2676.49,-680.53 2666.44,-673.55"/>
<polygon fill="#112c5f" stroke="#112c5f" stroke-width="2" points="2668.44,-670.68 2658.25,-667.79 2664.41,-676.41 2668.44,-670.68"/>
</g>
<!-- E_0&#45;&gt;E_0 -->
<g id="edge19" class="edge">
<title>E_0&#45;&gt;E_0</title>
<path fill="none" stroke="#38568c" stroke-dasharray="5,2" d="M2793.68,-746.12C2807.24,-749.48 2820,-744.44 2820,-731 2820,-717.56 2807.24,-712.52 2793.68,-715.88"/>
</g>
<!-- K_0 -->
<g id="node15" class="node">
<title>K_0</title>
<g id="a_node15"><a xlink:href="morph://MorpheusModel/Global/Constant[5]" xlink:title="K">
<ellipse fill="#d3d247" stroke="black" cx="1043" cy="-368" rx="27" ry="18"/>
<text text-anchor="middle" x="1043" y="-364.3" font-family="Times,serif" font-size="14.00">K</text>
</a>
</g>
</g>
<!-- K_0&#45;&gt;System_4_1 -->
<g id="edge22" class="edge">
<title>K_0&#45;&gt;System_4_1</title>
<path fill="none" stroke="#112c5f" stroke-width="2" d="M1025.23,-354.38C1020.96,-351.51 1016.38,-348.56 1012,-346 1005.14,-341.98 1001.89,-343.34 996,-338 989.08,-331.73 983.03,-323.74 978.03,-315.83"/>
<polygon fill="#112c5f" stroke="#112c5f" stroke-width="2" points="980.94,-313.87 972.84,-307.04 974.91,-317.43 980.94,-313.87"/>
</g>
<!-- Kr_0 -->
<g id="node16" class="node">
<title>Kr_0</title>
<g id="a_node16"><a xlink:href="morph://MorpheusModel/Global/Constant[9]" xlink:title="Kr">
<ellipse fill="#d3d247" stroke="black" cx="2341" cy="-368" rx="27" ry="18"/>
<text text-anchor="middle" x="2341" y="-364.3" font-family="Times,serif" font-size="14.00">Kr</text>
</a>
</g>
</g>
<!-- Kr_0&#45;&gt;System_4_1 -->
<g id="edge23" class="edge">
<title>Kr_0&#45;&gt;System_4_1</title>
<path fill="none" stroke="#112c5f" stroke-width="2" d="M2323.14,-354.13C2317.6,-350.82 2311.28,-347.72 2305,-346 2269.93,-336.4 1027.78,-355.67 996,-338 987.16,-333.08 980.3,-324.81 975.14,-316.19"/>
<polygon fill="#112c5f" stroke="#112c5f" stroke-width="2" points="978.14,-314.4 970.35,-307.22 971.97,-317.69 978.14,-314.4"/>
</g>
<!-- R_0 -->
<g id="node17" class="node">
<title>R_0</title>
<ellipse fill="#d3d247" stroke="black" cx="89" cy="-124" rx="27" ry="18"/>
<ellipse fill="none" stroke="black" cx="89" cy="-124" rx="31" ry="22"/>
<text text-anchor="middle" x="89" y="-120.3" font-family="Times,serif" font-size="14.00">R</text>
</g>
<!-- R_0&#45;&gt;Gnuplotter_0_50 -->
<g id="edge29" class="edge">
<title>R_0&#45;&gt;Gnuplotter_0_50</title>
<path fill="none" stroke="#112c5f" stroke-width="2" d="M103.25,-103.92C110.11,-96.28 119.02,-88.28 129,-84 232.51,-39.65 1035.98,-39.9 1245.28,-40.74"/>
<polygon fill="#112c5f" stroke="#112c5f" stroke-width="2" points="1245.35,-44.24 1255.37,-40.78 1245.38,-37.24 1245.35,-44.24"/>
</g>
<!-- Rtot_0 -->
<g id="node18" class="node">
<title>Rtot_0</title>
<g id="a_node18"><a xlink:href="morph://MorpheusModel/Global/Constant[22]" xlink:title="Rtot">
<ellipse fill="#d3d247" stroke="black" cx="2269" cy="-368" rx="27" ry="18"/>
<text text-anchor="middle" x="2269" y="-364.3" font-family="Times,serif" font-size="14.00">Rtot</text>
</a>
</g>
</g>
<!-- Rtot_0&#45;&gt;System_4_1 -->
<g id="edge32" class="edge">
<title>Rtot_0&#45;&gt;System_4_1</title>
<path fill="none" stroke="#112c5f" stroke-width="2" d="M2251.14,-354.13C2245.59,-350.83 2239.28,-347.72 2233,-346 2199.86,-336.93 1026.03,-354.7 996,-338 987.16,-333.08 980.3,-324.81 975.14,-316.19"/>
<polygon fill="#112c5f" stroke="#112c5f" stroke-width="2" points="978.15,-314.4 970.35,-307.22 971.97,-317.69 978.15,-314.4"/>
</g>
<!-- Y_0 -->
<g id="node19" class="node">
<title>Y_0</title>
<ellipse fill="#d3d247" stroke="black" cx="169" cy="-124" rx="27" ry="18"/>
<ellipse fill="none" stroke="black" cx="169" cy="-124" rx="31" ry="22"/>
<text text-anchor="middle" x="169" y="-120.3" font-family="Times,serif" font-size="14.00">Y</text>
</g>
<!-- Y_0&#45;&gt;Gnuplotter_0_50 -->
<g id="edge42" class="edge">
<title>Y_0&#45;&gt;Gnuplotter_0_50</title>
<path fill="none" stroke="#112c5f" stroke-width="2" d="M199.7,-120.76C354.76,-109.47 1051.93,-58.7 1245.19,-44.63"/>
<polygon fill="#112c5f" stroke="#112c5f" stroke-width="2" points="1245.62,-48.11 1255.34,-43.89 1245.11,-41.12 1245.62,-48.11"/>
</g>
<!-- Ytot_0 -->
<g id="node20" class="node">
<title>Ytot_0</title>
<g id="a_node20"><a xlink:href="morph://MorpheusModel/Global/Constant[21]" xlink:title="Ytot">
<ellipse fill="#d3d247" stroke="black" cx="2197" cy="-368" rx="27" ry="18"/>
<text text-anchor="middle" x="2197" y="-364.3" font-family="Times,serif" font-size="14.00">Ytot</text>
</a>
</g>
</g>
<!-- Ytot_0&#45;&gt;System_4_1 -->
<g id="edge44" class="edge">
<title>Ytot_0&#45;&gt;System_4_1</title>
<path fill="none" stroke="#112c5f" stroke-width="2" d="M2179.14,-354.13C2173.59,-350.83 2167.28,-347.72 2161,-346 2129.79,-337.45 1024.28,-353.74 996,-338 987.16,-333.08 980.31,-324.8 975.14,-316.19"/>
<polygon fill="#112c5f" stroke="#112c5f" stroke-width="2" points="978.15,-314.39 970.35,-307.22 971.97,-317.69 978.15,-314.39"/>
</g>
<!-- alphaR_0 -->
<g id="node21" class="node">
<title>alphaR_0</title>
<g id="a_node21"><a xlink:href="morph://MorpheusModel/Global/Constant[12]" xlink:title="alphaR">
<ellipse fill="#d3d247" stroke="black" cx="2116" cy="-368" rx="36" ry="18"/>
<text text-anchor="middle" x="2116" y="-364.3" font-family="Times,serif" font-size="14.00">alphaR</text>
</a>
</g>
</g>
<!-- alphaR_0&#45;&gt;System_4_1 -->
<g id="edge45" class="edge">
<title>alphaR_0&#45;&gt;System_4_1</title>
<path fill="none" stroke="#112c5f" stroke-width="2" d="M2092.86,-353.9C2086.03,-350.67 2078.4,-347.67 2071,-346 2041.87,-339.42 1022.09,-352.53 996,-338 987.16,-333.08 980.31,-324.8 975.14,-316.19"/>
<polygon fill="#112c5f" stroke="#112c5f" stroke-width="2" points="978.15,-314.39 970.36,-307.21 971.97,-317.68 978.15,-314.39"/>
</g>
<!-- cell_center_x_0 -->
<g id="node23" class="node">
<title>cell_center_x_0</title>
<ellipse fill="#d3d247" stroke="black" cx="2540" cy="-368" rx="53.89" ry="18"/>
<text text-anchor="middle" x="2540" y="-364.3" font-family="Times,serif" font-size="14.00">cell.center.x</text>
</g>
<!-- cell_center_0&#45;&gt;cell_center_x_0 -->
<g id="edge47" class="edge">
<title>cell_center_0&#45;&gt;cell_center_x_0</title>
<path fill="none" stroke="#38568c" stroke-dasharray="5,2" d="M1426.43,-458.97C1615.49,-453.06 2271.67,-430.09 2477,-390 2486.62,-388.12 2496.79,-385.18 2506.1,-382.08"/>
</g>
<!-- cell_center_y_0 -->
<g id="node24" class="node">
<title>cell_center_y_0</title>
<ellipse fill="#d3d247" stroke="black" cx="2666" cy="-368" rx="53.89" ry="18"/>
<text text-anchor="middle" x="2666" y="-364.3" font-family="Times,serif" font-size="14.00">cell.center.y</text>
</g>
<!-- cell_center_0&#45;&gt;cell_center_y_0 -->
<g id="edge48" class="edge">
<title>cell_center_0&#45;&gt;cell_center_y_0</title>
<path fill="none" stroke="#38568c" stroke-dasharray="5,2" d="M1426.3,-459.36C1628.68,-454.58 2371.91,-434.33 2603,-390 2612.62,-388.15 2622.8,-385.22 2632.11,-382.12"/>
</g>
<!-- cell_center_x_0&#45;&gt;Logger_0_1 -->
<g id="edge54" class="edge">
<title>cell_center_x_0&#45;&gt;Logger_0_1</title>
<path fill="none" stroke="#112c5f" stroke-width="2" d="M2563.4,-351.58C2582.04,-339.3 2608.46,-321.9 2629.82,-307.83"/>
<polygon fill="#112c5f" stroke="#112c5f" stroke-width="2" points="2631.9,-310.65 2638.33,-302.23 2628.05,-304.81 2631.9,-310.65"/>
</g>
<!-- cell_center_y_0&#45;&gt;Logger_0_1 -->
<g id="edge58" class="edge">
<title>cell_center_y_0&#45;&gt;Logger_0_1</title>
<path fill="none" stroke="#112c5f" stroke-width="2" d="M2666,-349.8C2666,-340.45 2666,-328.55 2666,-317.45"/>
<polygon fill="#112c5f" stroke="#112c5f" stroke-width="2" points="2669.5,-317.16 2666,-307.16 2662.5,-317.16 2669.5,-317.16"/>
</g>
<!-- cell_type_0&#45;&gt;NeighborhoodReporter_2_1 -->
<g id="edge60" class="edge">
<title>cell_type_0&#45;&gt;NeighborhoodReporter_2_1</title>
<path fill="none" stroke="#112c5f" stroke-width="2" d="M1101.05,-541.43C1093.87,-538.43 1086.24,-535.44 1079,-533 1017.31,-512.18 999.02,-516.8 937,-497 929.56,-494.63 921.85,-491.96 914.21,-489.18"/>
<polygon fill="#112c5f" stroke="#112c5f" stroke-width="2" points="915.2,-485.82 904.61,-485.63 912.77,-492.38 915.2,-485.82"/>
</g>
<!-- NeighborhoodReporter_2_0 -->
<g id="node49" class="node">
<title>NeighborhoodReporter_2_0</title>
<g id="a_node49"><a xlink:href="morph://MorpheusModel/CellTypes/CellType[1]/NeighborhoodReporter[1]" xlink:title="&lt;TABLE&gt;">
<polygon fill="#fffea3" stroke="transparent" points="413,-581 253,-581 253,-533 413,-533 413,-581"/>
<text text-anchor="start" x="257" y="-565" font-family="times" font-size="15.00">NeighborhoodReporter</text>
<text text-anchor="start" x="326" y="-542" font-family="times" font-size="15.00">&#45;1</text>
<polygon fill="black" stroke="black" points="253,-557 253,-557 413,-557 413,-557 253,-557"/>
<polygon fill="none" stroke="black" points="253,-533 253,-581 413,-581 413,-533 253,-533"/>
</a>
</g>
</g>
<!-- cell_type_0&#45;&gt;NeighborhoodReporter_2_0 -->
<g id="edge59" class="edge">
<title>cell_type_0&#45;&gt;NeighborhoodReporter_2_0</title>
<path fill="none" stroke="#112c5f" stroke-width="2" d="M1111.05,-576.32C1099.64,-585.07 1084.97,-594.47 1070,-599 1002.79,-619.35 506.96,-612.28 438,-599 422.5,-596.02 406.38,-590.76 391.56,-584.96"/>
<polygon fill="#112c5f" stroke="#112c5f" stroke-width="2" points="392.61,-581.61 382.03,-581.09 389.98,-588.1 392.61,-581.61"/>
</g>
<!-- celltype_dividingcell_id_0 -->
<g id="node26" class="node">
<title>celltype_dividingcell_id_0</title>
<ellipse fill="#d3d247" stroke="black" cx="108" cy="-645" rx="92.08" ry="18"/>
<text text-anchor="middle" x="108" y="-641.3" font-family="Times,serif" font-size="14.00">celltype.dividingcell.id</text>
</g>
<!-- celltype_dividingcell_id_0&#45;&gt;NeighborhoodReporter_2_0 -->
<g id="edge62" class="edge">
<title>celltype_dividingcell_id_0&#45;&gt;NeighborhoodReporter_2_0</title>
<path fill="none" stroke="#112c5f" stroke-width="2" d="M147.97,-628.72C179.86,-616.53 225.32,-599.16 263.2,-584.68"/>
<polygon fill="#112c5f" stroke="#112c5f" stroke-width="2" points="264.56,-587.91 272.65,-581.07 262.06,-581.37 264.56,-587.91"/>
</g>
<!-- celltype_medium_id_0 -->
<g id="node27" class="node">
<title>celltype_medium_id_0</title>
<ellipse fill="#d3d247" stroke="black" cx="1276" cy="-557" rx="79.89" ry="18"/>
<text text-anchor="middle" x="1276" y="-553.3" font-family="Times,serif" font-size="14.00">celltype.medium.id</text>
</g>
<!-- celltype_medium_id_0&#45;&gt;NeighborhoodReporter_2_1 -->
<g id="edge63" class="edge">
<title>celltype_medium_id_0&#45;&gt;NeighborhoodReporter_2_1</title>
<path fill="none" stroke="#112c5f" stroke-width="2" d="M1227.72,-542.49C1214.58,-539.1 1200.3,-535.67 1187,-533 1076.94,-510.92 1045.59,-525.47 937,-497 928.61,-494.8 919.94,-492.06 911.44,-489.09"/>
<polygon fill="#112c5f" stroke="#112c5f" stroke-width="2" points="912.55,-485.77 901.95,-485.66 910.17,-492.35 912.55,-485.77"/>
</g>
<!-- d_0 -->
<g id="node28" class="node">
<title>d_0</title>
<ellipse fill="#b5b426" stroke="black" cx="2437" cy="-368" rx="27" ry="18"/>
<ellipse fill="none" stroke="black" cx="2437" cy="-368" rx="31" ry="22"/>
<text text-anchor="middle" x="2437" y="-364.3" font-family="Times,serif" font-size="14.00">d</text>
</g>
<!-- d_abs_0 -->
<g id="node29" class="node">
<title>d_abs_0</title>
<ellipse fill="#d3d247" stroke="black" cx="2436" cy="-283" rx="29.5" ry="18"/>
<text text-anchor="middle" x="2436" y="-279.3" font-family="Times,serif" font-size="14.00">d.abs</text>
</g>
<!-- d_0&#45;&gt;d_abs_0 -->
<g id="edge64" class="edge">
<title>d_0&#45;&gt;d_abs_0</title>
<path fill="none" stroke="#38568c" stroke-dasharray="5,2" d="M2436.74,-345.63C2436.58,-331.79 2436.36,-314.02 2436.21,-301.12"/>
</g>
<!-- d_abs_0&#45;&gt;Gnuplotter_0_50 -->
<g id="edge67" class="edge">
<title>d_abs_0&#45;&gt;Gnuplotter_0_50</title>
<path fill="none" stroke="#112c5f" stroke-width="2" d="M2433.1,-264.89C2428.47,-243.13 2417.2,-206.12 2392,-187 2164.58,-14.45 2041.18,-120.11 1758,-84 1608.1,-64.89 1429.86,-50.73 1344.88,-44.51"/>
<polygon fill="#112c5f" stroke="#112c5f" stroke-width="2" points="1344.97,-41 1334.74,-43.77 1344.46,-47.99 1344.97,-41"/>
</g>
<!-- frac_0 -->
<g id="node30" class="node">
<title>frac_0</title>
<g id="a_node30"><a xlink:href="morph://MorpheusModel/Global/Constant[20]" xlink:title="frac">
<ellipse fill="#d3d247" stroke="black" cx="2035" cy="-368" rx="27" ry="18"/>
<text text-anchor="middle" x="2035" y="-364.3" font-family="Times,serif" font-size="14.00">frac</text>
</a>
</g>
</g>
<!-- frac_0&#45;&gt;System_4_1 -->
<g id="edge70" class="edge">
<title>frac_0&#45;&gt;System_4_1</title>
<path fill="none" stroke="#112c5f" stroke-width="2" d="M2017.14,-354.14C2011.59,-350.83 2005.28,-347.72 1999,-346 1972.13,-338.62 1020.34,-351.56 996,-338 987.17,-333.08 980.31,-324.8 975.14,-316.18"/>
<polygon fill="#112c5f" stroke="#112c5f" stroke-width="2" points="978.15,-314.39 970.36,-307.21 971.97,-317.68 978.15,-314.39"/>
</g>
<!-- h_0 -->
<g id="node31" class="node">
<title>h_0</title>
<g id="a_node31"><a xlink:href="morph://MorpheusModel/Global/Constant[7]" xlink:title="h">
<ellipse fill="#d3d247" stroke="black" cx="1963" cy="-368" rx="27" ry="18"/>
<text text-anchor="middle" x="1963" y="-364.3" font-family="Times,serif" font-size="14.00">h</text>
</a>
</g>
</g>
<!-- h_0&#45;&gt;System_4_1 -->
<g id="edge71" class="edge">
<title>h_0&#45;&gt;System_4_1</title>
<path fill="none" stroke="#112c5f" stroke-width="2" d="M1945.14,-354.14C1939.59,-350.83 1933.28,-347.73 1927,-346 1902.06,-339.14 1018.59,-350.6 996,-338 987.17,-333.07 980.31,-324.79 975.14,-316.18"/>
<polygon fill="#112c5f" stroke="#112c5f" stroke-width="2" points="978.15,-314.38 970.36,-307.21 971.98,-317.68 978.15,-314.38"/>
</g>
<!-- ke_0 -->
<g id="node32" class="node">
<title>ke_0</title>
<g id="a_node32"><a xlink:href="morph://MorpheusModel/Global/Constant[4]" xlink:title="ke">
<ellipse fill="#d3d247" stroke="black" cx="1891" cy="-368" rx="27" ry="18"/>
<text text-anchor="middle" x="1891" y="-364.3" font-family="Times,serif" font-size="14.00">ke</text>
</a>
</g>
</g>
<!-- ke_0&#45;&gt;System_4_1 -->
<g id="edge72" class="edge">
<title>ke_0&#45;&gt;System_4_1</title>
<path fill="none" stroke="#112c5f" stroke-width="2" d="M1873.14,-354.14C1867.59,-350.84 1861.28,-347.73 1855,-346 1831.99,-339.67 1016.84,-349.63 996,-338 987.17,-333.07 980.31,-324.79 975.15,-316.18"/>
<polygon fill="#112c5f" stroke="#112c5f" stroke-width="2" points="978.15,-314.38 970.36,-307.2 971.98,-317.67 978.15,-314.38"/>
</g>
<!-- kr_0 -->
<g id="node33" class="node">
<title>kr_0</title>
<g id="a_node33"><a xlink:href="morph://MorpheusModel/Global/Constant[8]" xlink:title="kr">
<ellipse fill="#d3d247" stroke="black" cx="1819" cy="-368" rx="27" ry="18"/>
<text text-anchor="middle" x="1819" y="-364.3" font-family="Times,serif" font-size="14.00">kr</text>
</a>
</g>
</g>
<!-- kr_0&#45;&gt;System_4_1 -->
<g id="edge73" class="edge">
<title>kr_0&#45;&gt;System_4_1</title>
<path fill="none" stroke="#112c5f" stroke-width="2" d="M1801.14,-354.15C1795.59,-350.84 1789.28,-347.73 1783,-346 1761.92,-340.19 1015.09,-348.66 996,-338 987.17,-333.07 980.32,-324.79 975.15,-316.17"/>
<polygon fill="#112c5f" stroke="#112c5f" stroke-width="2" points="978.16,-314.38 970.36,-307.2 971.98,-317.67 978.16,-314.38"/>
</g>
<!-- ky_0 -->
<g id="node34" class="node">
<title>ky_0</title>
<g id="a_node34"><a xlink:href="morph://MorpheusModel/Global/Constant[0]" xlink:title="ky">
<ellipse fill="#d3d247" stroke="black" cx="1747" cy="-368" rx="27" ry="18"/>
<text text-anchor="middle" x="1747" y="-364.3" font-family="Times,serif" font-size="14.00">ky</text>
</a>
</g>
</g>
<!-- ky_0&#45;&gt;System_4_1 -->
<g id="edge74" class="edge">
<title>ky_0&#45;&gt;System_4_1</title>
<path fill="none" stroke="#112c5f" stroke-width="2" d="M1729.14,-354.15C1723.59,-350.85 1717.28,-347.73 1711,-346 1691.86,-340.71 1013.33,-347.7 996,-338 987.17,-333.06 980.32,-324.78 975.15,-316.17"/>
<polygon fill="#112c5f" stroke="#112c5f" stroke-width="2" points="978.16,-314.37 970.37,-307.19 971.98,-317.66 978.16,-314.37"/>
</g>
<!-- kye_0 -->
<g id="node35" class="node">
<title>kye_0</title>
<g id="a_node35"><a xlink:href="morph://MorpheusModel/Global/Constant[1]" xlink:title="kye">
<ellipse fill="#d3d247" stroke="black" cx="1675" cy="-368" rx="27" ry="18"/>
<text text-anchor="middle" x="1675" y="-364.3" font-family="Times,serif" font-size="14.00">kye</text>
</a>
</g>
</g>
<!-- kye_0&#45;&gt;System_4_1 -->
<g id="edge75" class="edge">
<title>kye_0&#45;&gt;System_4_1</title>
<path fill="none" stroke="#112c5f" stroke-width="2" d="M1657.14,-354.15C1651.59,-350.85 1645.28,-347.74 1639,-346 1604.57,-336.46 1027.17,-355.46 996,-338 987.18,-333.06 980.32,-324.77 975.16,-316.16"/>
<polygon fill="#112c5f" stroke="#112c5f" stroke-width="2" points="978.16,-314.36 970.37,-307.19 971.99,-317.66 978.16,-314.36"/>
</g>
<!-- kyr_0 -->
<g id="node36" class="node">
<title>kyr_0</title>
<g id="a_node36"><a xlink:href="morph://MorpheusModel/Global/Constant[13]" xlink:title="kyr">
<ellipse fill="#d3d247" stroke="black" cx="1603" cy="-368" rx="27" ry="18"/>
<text text-anchor="middle" x="1603" y="-364.3" font-family="Times,serif" font-size="14.00">kyr</text>
</a>
</g>
</g>
<!-- kyr_0&#45;&gt;System_4_1 -->
<g id="edge76" class="edge">
<title>kyr_0&#45;&gt;System_4_1</title>
<path fill="none" stroke="#112c5f" stroke-width="2" d="M1585.13,-354.16C1579.59,-350.86 1573.27,-347.74 1567,-346 1536.43,-337.51 1023.67,-353.53 996,-338 987.18,-333.05 980.33,-324.76 975.16,-316.15"/>
<polygon fill="#112c5f" stroke="#112c5f" stroke-width="2" points="978.17,-314.36 970.37,-307.18 971.99,-317.65 978.17,-314.36"/>
</g>
<!-- n_0 -->
<g id="node37" class="node">
<title>n_0</title>
<g id="a_node37"><a xlink:href="morph://MorpheusModel/Global/Constant[11]" xlink:title="n">
<ellipse fill="#d3d247" stroke="black" cx="1531" cy="-368" rx="27" ry="18"/>
<text text-anchor="middle" x="1531" y="-364.3" font-family="Times,serif" font-size="14.00">n</text>
</a>
</g>
</g>
<!-- n_0&#45;&gt;System_4_1 -->
<g id="edge77" class="edge">
<title>n_0&#45;&gt;System_4_1</title>
<path fill="none" stroke="#112c5f" stroke-width="2" d="M1513.13,-354.17C1507.58,-350.86 1501.27,-347.75 1495,-346 1468.29,-338.55 1020.16,-351.59 996,-338 987.19,-333.04 980.33,-324.75 975.17,-316.14"/>
<polygon fill="#112c5f" stroke="#112c5f" stroke-width="2" points="978.18,-314.34 970.38,-307.17 972,-317.64 978.18,-314.34"/>
</g>
<!-- shareprob_0 -->
<g id="node38" class="node">
<title>shareprob_0</title>
<g id="a_node38"><a xlink:href="morph://MorpheusModel/Global/Constant[23]" xlink:title="shareprob">
<ellipse fill="#d3d247" stroke="black" cx="1441" cy="-368" rx="45.49" ry="18"/>
<text text-anchor="middle" x="1441" y="-364.3" font-family="Times,serif" font-size="14.00">shareprob</text>
</a>
</g>
</g>
<!-- shareprob_0&#45;&gt;System_4_1 -->
<g id="edge78" class="edge">
<title>shareprob_0&#45;&gt;System_4_1</title>
<path fill="none" stroke="#112c5f" stroke-width="2" d="M1411.19,-354.3C1402,-350.95 1391.73,-347.78 1382,-346 1360.9,-342.13 1014.67,-348.56 996,-338 987.2,-333.02 980.35,-324.73 975.18,-316.11"/>
<polygon fill="#112c5f" stroke="#112c5f" stroke-width="2" points="978.19,-314.32 970.39,-307.15 972.02,-317.62 978.19,-314.32"/>
</g>
<!-- size_0 -->
<g id="node39" class="node">
<title>size_0</title>
<ellipse fill="#b5b426" stroke="black" cx="2734" cy="-645" rx="27" ry="18"/>
<text text-anchor="middle" x="2734" y="-641.3" font-family="Times,serif" font-size="14.00">size</text>
</g>
<!-- size_x_0 -->
<g id="node40" class="node">
<title>size_x_0</title>
<ellipse fill="#d3d247" stroke="black" cx="2348" cy="-557" rx="31.4" ry="18"/>
<text text-anchor="middle" x="2348" y="-553.3" font-family="Times,serif" font-size="14.00">size.x</text>
</g>
<!-- size_0&#45;&gt;size_x_0 -->
<g id="edge79" class="edge">
<title>size_0&#45;&gt;size_x_0</title>
<path fill="none" stroke="#38568c" stroke-dasharray="5,2" d="M2712.36,-633.99C2699.43,-628.34 2682.53,-621.52 2667,-617 2563.16,-586.81 2435.64,-568.72 2378.37,-561.56"/>
</g>
<!-- size_y_0 -->
<g id="node41" class="node">
<title>size_y_0</title>
<ellipse fill="#d3d247" stroke="black" cx="2749" cy="-557" rx="31.4" ry="18"/>
<text text-anchor="middle" x="2749" y="-553.3" font-family="Times,serif" font-size="14.00">size.y</text>
</g>
<!-- size_0&#45;&gt;size_y_0 -->
<g id="edge80" class="edge">
<title>size_0&#45;&gt;size_y_0</title>
<path fill="none" stroke="#38568c" stroke-dasharray="5,2" d="M2736.96,-627.01C2739.59,-611.93 2743.41,-590.02 2746.04,-574.96"/>
</g>
<!-- size_x_0&#45;&gt;Logger_0_1 -->
<g id="edge82" class="edge">
<title>size_x_0&#45;&gt;Logger_0_1</title>
<path fill="none" stroke="#112c5f" stroke-width="2" d="M2378.79,-553.48C2454.29,-545.43 2648.34,-513.12 2729,-390 2739.72,-373.64 2736.56,-364.04 2729,-346 2723.12,-331.97 2712.35,-319.51 2701.36,-309.51"/>
<polygon fill="#112c5f" stroke="#112c5f" stroke-width="2" points="2703.63,-306.85 2693.77,-302.98 2699.07,-312.16 2703.63,-306.85"/>
</g>
<!-- CellDeath_2_5386813627640286968_1 -->
<g id="node47" class="node">
<title>CellDeath_2_5386813627640286968_1</title>
<g id="a_node47"><a xlink:href="morph://MorpheusModel/CellTypes/CellType[1]/CellDeath" xlink:title="&lt;TABLE&gt;">
<polygon fill="#fffea3" stroke="transparent" points="750,-497 498,-497 498,-426 750,-426 750,-497"/>
<text text-anchor="start" x="591.5" y="-480.5" font-family="times" font-size="15.00">CellDeath</text>
<text text-anchor="start" x="502" y="-458.5" font-family="times" font-style="italic" font-size="15.00">&quot;delete cells near right domain edge&quot;</text>
<text text-anchor="start" x="619.5" y="-434.5" font-family="times" font-size="15.00">1</text>
<polygon fill="black" stroke="black" points="498,-449.5 498,-449.5 750,-449.5 750,-449.5 498,-449.5"/>
<polygon fill="none" stroke="black" points="498,-426 498,-497 750,-497 750,-426 498,-426"/>
</a>
</g>
</g>
<!-- size_x_0&#45;&gt;CellDeath_2_5386813627640286968_1 -->
<g id="edge81" class="edge">
<title>size_x_0&#45;&gt;CellDeath_2_5386813627640286968_1</title>
<path fill="none" stroke="#112c5f" stroke-width="2" d="M2316.69,-555.24C2111.49,-550.2 961.06,-521.14 760.41,-496.98"/>
<polygon fill="#112c5f" stroke="#112c5f" stroke-width="2" points="760.68,-493.48 750.31,-495.65 759.77,-500.42 760.68,-493.48"/>
</g>
<!-- size_x_0&#45;&gt;System_4_1 -->
<g id="edge83" class="edge">
<title>size_x_0&#45;&gt;System_4_1</title>
<path fill="none" stroke="#112c5f" stroke-width="2" d="M2316.76,-554.46C2168.65,-546.6 1538.09,-506.68 1387,-390 1370,-376.87 1384.93,-357.82 1367,-346 1332.58,-323.31 1031.88,-358.32 996,-338 987.2,-333.02 980.35,-324.72 975.18,-316.11"/>
<polygon fill="#112c5f" stroke="#112c5f" stroke-width="2" points="978.19,-314.32 970.39,-307.14 972.02,-317.61 978.19,-314.32"/>
</g>
<!-- size_y_0&#45;&gt;Logger_0_1 -->
<g id="edge84" class="edge">
<title>size_y_0&#45;&gt;Logger_0_1</title>
<path fill="none" stroke="#112c5f" stroke-width="2" d="M2753.17,-539.07C2761.41,-501.83 2776.32,-410.98 2744,-346 2735.03,-327.97 2718.08,-313.51 2702.27,-303.11"/>
<polygon fill="#112c5f" stroke="#112c5f" stroke-width="2" points="2704,-300.06 2693.66,-297.75 2700.3,-306.01 2704,-300.06"/>
</g>
<!-- stoptime_0 -->
<g id="node42" class="node">
<title>stoptime_0</title>
<ellipse fill="#d3d247" stroke="black" cx="158" cy="-368" rx="41.69" ry="18"/>
<text text-anchor="middle" x="158" y="-364.3" font-family="Times,serif" font-size="14.00">stoptime</text>
</g>
<!-- stoptime_0&#45;&gt;System_4_1 -->
<g id="edge85" class="edge">
<title>stoptime_0&#45;&gt;System_4_1</title>
<path fill="none" stroke="#112c5f" stroke-width="2" d="M183.21,-353.6C189.81,-350.62 197.03,-347.82 204,-346 341.77,-310.1 785.35,-290.68 921.73,-285.46"/>
<polygon fill="#112c5f" stroke="#112c5f" stroke-width="2" points="922.26,-288.94 932.12,-285.07 922,-281.95 922.26,-288.94"/>
</g>
<!-- time_0 -->
<g id="node43" class="node">
<title>time_0</title>
<g id="a_node43"><a xlink:href="morph://MorpheusModel/Time/TimeSymbol" xlink:title="time">
<ellipse fill="#d3d247" stroke="black" cx="1043" cy="-557" rx="27" ry="18"/>
<text text-anchor="middle" x="1043" y="-553.3" font-family="Times,serif" font-size="14.00">time</text>
</a>
</g>
</g>
<!-- CellDivision_2_1 -->
<g id="node46" class="node">
<title>CellDivision_2_1</title>
<g id="a_node46"><a xlink:href="morph://MorpheusModel/CellTypes/CellType[1]/CellDivision" xlink:title="&lt;TABLE&gt;">
<polygon fill="#fffea3" stroke="transparent" points="480,-485.5 396,-485.5 396,-437.5 480,-437.5 480,-485.5"/>
<text text-anchor="start" x="400" y="-469.5" font-family="times" font-size="15.00">CellDivision</text>
<text text-anchor="start" x="433.5" y="-446.5" font-family="times" font-size="15.00">1</text>
<polygon fill="black" stroke="black" points="396,-461.5 396,-461.5 480,-461.5 480,-461.5 396,-461.5"/>
<polygon fill="none" stroke="black" points="396,-437.5 396,-485.5 480,-485.5 480,-437.5 396,-437.5"/>
</a>
</g>
</g>
<!-- time_0&#45;&gt;CellDivision_2_1 -->
<g id="edge86" class="edge">
<title>time_0&#45;&gt;CellDivision_2_1</title>
<path fill="none" stroke="#112c5f" stroke-width="2" d="M1027.62,-541.92C1022.92,-538.4 1017.53,-535.04 1012,-533 793.41,-452.34 709.29,-572.88 489,-497 484.38,-495.41 479.78,-493.28 475.35,-490.87"/>
<polygon fill="#112c5f" stroke="#112c5f" stroke-width="2" points="476.9,-487.72 466.52,-485.58 473.3,-493.72 476.9,-487.72"/>
</g>
<!-- tlim_0 -->
<g id="node44" class="node">
<title>tlim_0</title>
<g id="a_node44"><a xlink:href="morph://MorpheusModel/Global/Constant[19]" xlink:title="tlim">
<ellipse fill="#d3d247" stroke="black" cx="71" cy="-368" rx="27" ry="18"/>
<text text-anchor="middle" x="71" y="-364.3" font-family="Times,serif" font-size="14.00">tlim</text>
</a>
</g>
</g>
<!-- tlim_0&#45;&gt;System_4_1 -->
<g id="edge87" class="edge">
<title>tlim_0&#45;&gt;System_4_1</title>
<path fill="none" stroke="#112c5f" stroke-width="2" d="M88.93,-354.39C94.48,-351.09 100.78,-347.93 107,-346 262.17,-297.96 774.36,-286.77 921.9,-284.51"/>
<polygon fill="#112c5f" stroke="#112c5f" stroke-width="2" points="922.34,-288.01 932.28,-284.36 922.23,-281.01 922.34,-288.01"/>
</g>
<!-- MotilityReporter_2_50 -->
<g id="node45" class="node">
<title>MotilityReporter_2_50</title>
<g id="a_node45"><a xlink:href="morph://MorpheusModel/CellTypes/CellType[1]/MotilityReporter" xlink:title="&lt;TABLE&gt;">
<polygon fill="#fffea3" stroke="transparent" points="938,-581 824,-581 824,-533 938,-533 938,-581"/>
<text text-anchor="start" x="828" y="-565" font-family="times" font-size="15.00">MotilityReporter</text>
<text text-anchor="start" x="872.5" y="-542" font-family="times" font-size="15.00">50</text>
<polygon fill="black" stroke="black" points="824,-557 824,-557 938,-557 938,-557 824,-557"/>
<polygon fill="none" stroke="black" points="824,-533 824,-581 938,-581 938,-533 824,-533"/>
</a>
</g>
</g>
<!-- d_2 -->
<g id="node62" class="node">
<title>d_2</title>
<g id="a_node62"><a xlink:href="morph://MorpheusModel/CellTypes/CellType[1]/PropertyVector" xlink:title="d">
<ellipse fill="#b5b426" stroke="black" cx="973" cy="-461.5" rx="27" ry="18"/>
<text text-anchor="middle" x="973" y="-457.8" font-family="Times,serif" font-size="14.00">d</text>
</a>
</g>
</g>
<!-- MotilityReporter_2_50&#45;&gt;d_2 -->
<g id="edge25" class="edge">
<title>MotilityReporter_2_50&#45;&gt;d_2</title>
<path fill="none" stroke="#8f100d" stroke-width="3" d="M903.74,-532.89C918.42,-517.97 937.39,-498.69 951.77,-484.08"/>
<polygon fill="#8f100d" stroke="#8f100d" stroke-width="3" points="954.3,-486.5 958.82,-476.91 949.31,-481.59 954.3,-486.5"/>
</g>
<!-- cell_center_2 -->
<g id="node59" class="node">
<title>cell_center_2</title>
<ellipse fill="#b5b426" stroke="black" cx="624" cy="-645" rx="47.39" ry="18"/>
<text text-anchor="middle" x="624" y="-641.3" font-family="Times,serif" font-size="14.00">cell.center</text>
</g>
<!-- CellDivision_2_1&#45;&gt;cell_center_2 -->
<g id="edge11" class="edge">
<title>CellDivision_2_1&#45;&gt;cell_center_2</title>
<path fill="none" stroke="#8f100d" stroke-width="3" d="M471.17,-485.6C477.05,-489.51 483.16,-493.44 489,-497 517.54,-514.38 530.71,-510.05 555,-533 580.8,-557.38 600.84,-593.41 612.52,-617.76"/>
<polygon fill="#8f100d" stroke="#8f100d" stroke-width="3" points="609.47,-619.5 616.86,-627.09 615.82,-616.55 609.47,-619.5"/>
</g>
<!-- CellDeath_2_5386813627640286968_1&#45;&gt;cell_center_2 -->
<g id="edge10" class="edge">
<title>CellDeath_2_5386813627640286968_1&#45;&gt;cell_center_2</title>
<path fill="none" stroke="#8f100d" stroke-width="3" d="M624,-497.27C624,-532 624,-584.69 624,-616.58"/>
<polygon fill="#8f100d" stroke="#8f100d" stroke-width="3" points="620.5,-616.92 624,-626.92 627.5,-616.92 620.5,-616.92"/>
</g>
<!-- M_2 -->
<g id="node53" class="node">
<title>M_2</title>
<g id="a_node53"><a xlink:href="morph://MorpheusModel/CellTypes/CellType[1]/Property[9]" xlink:title="M">
<ellipse fill="#d3d247" stroke="black" cx="823" cy="-368" rx="27" ry="18"/>
<text text-anchor="middle" x="823" y="-364.3" font-family="Times,serif" font-size="14.00">M</text>
</a>
</g>
</g>
<!-- NeighborhoodReporter_2_1&#45;&gt;M_2 -->
<g id="edge27" class="edge">
<title>NeighborhoodReporter_2_1&#45;&gt;M_2</title>
<path fill="none" stroke="#8f100d" stroke-width="3" d="M841.69,-437.41C838.24,-424.79 833.96,-409.1 830.36,-395.93"/>
<polygon fill="#8f100d" stroke="#8f100d" stroke-width="3" points="833.66,-394.74 827.65,-386.02 826.91,-396.58 833.66,-394.74"/>
</g>
<!-- av_2 -->
<g id="node56" class="node">
<title>av_2</title>
<g id="a_node56"><a xlink:href="morph://MorpheusModel/CellTypes/CellType[1]/Property[11]" xlink:title="av">
<ellipse fill="#d3d247" stroke="black" cx="895" cy="-368" rx="27" ry="18"/>
<text text-anchor="middle" x="895" y="-364.3" font-family="Times,serif" font-size="14.00">av</text>
</a>
</g>
</g>
<!-- NeighborhoodReporter_2_1&#45;&gt;av_2 -->
<g id="edge28" class="edge">
<title>NeighborhoodReporter_2_1&#45;&gt;av_2</title>
<path fill="none" stroke="#8f100d" stroke-width="3" d="M859.86,-437.41C866.6,-424.29 875.05,-407.84 881.97,-394.36"/>
<polygon fill="#8f100d" stroke="#8f100d" stroke-width="3" points="885.24,-395.66 886.7,-385.16 879.02,-392.46 885.24,-395.66"/>
</g>
<!-- neigh_2 -->
<g id="node65" class="node">
<title>neigh_2</title>
<g id="a_node65"><a xlink:href="morph://MorpheusModel/CellTypes/CellType[1]/Property[10]" xlink:title="neigh">
<ellipse fill="#d3d247" stroke="black" cx="327" cy="-461.5" rx="30.59" ry="18"/>
<text text-anchor="middle" x="327" y="-457.8" font-family="Times,serif" font-size="14.00">neigh</text>
</a>
</g>
</g>
<!-- NeighborhoodReporter_2_0&#45;&gt;neigh_2 -->
<g id="edge26" class="edge">
<title>NeighborhoodReporter_2_0&#45;&gt;neigh_2</title>
<path fill="none" stroke="#8f100d" stroke-width="3" d="M331.52,-532.89C330.68,-519.92 329.64,-503.65 328.77,-490.02"/>
<polygon fill="#8f100d" stroke="#8f100d" stroke-width="3" points="332.24,-489.53 328.11,-479.77 325.26,-489.98 332.24,-489.53"/>
</g>
<!-- Cr_2 -->
<g id="node51" class="node">
<title>Cr_2</title>
<g id="a_node51"><a xlink:href="morph://MorpheusModel/CellTypes/CellType[1]/Property[3]" xlink:title="Cr">
<ellipse fill="#d3d247" stroke="black" cx="901" cy="-205" rx="27" ry="18"/>
<text text-anchor="middle" x="901" y="-201.3" font-family="Times,serif" font-size="14.00">Cr</text>
</a>
</g>
</g>
<!-- Cr_2&#45;&gt;Cr_0 -->
<g id="edge14" class="edge">
<title>Cr_2&#45;&gt;Cr_0</title>
<path fill="none" stroke="#38568c" stroke-dasharray="5,2" d="M921.46,-192.79C926.41,-190.51 931.79,-188.39 937,-187 955.02,-182.19 1528.22,-138.13 1669,-127.37"/>
</g>
<!-- E_2 -->
<g id="node52" class="node">
<title>E_2</title>
<g id="a_node52"><a xlink:href="morph://MorpheusModel/CellTypes/CellType[1]/Property[1]" xlink:title="E">
<ellipse fill="#d3d247" stroke="black" cx="973" cy="-205" rx="27" ry="18"/>
<text text-anchor="middle" x="973" y="-201.3" font-family="Times,serif" font-size="14.00">E</text>
</a>
</g>
</g>
<!-- E_2&#45;&gt;E_0 -->
<g id="edge21" class="edge">
<title>E_2&#45;&gt;E_0</title>
<path fill="none" stroke="#38568c" stroke-dasharray="5,2" d="M991.74,-218.14C995.65,-220.13 999.85,-221.9 1004,-223 1095.25,-247.18 2617.91,-210.11 2703,-251 2763.32,-279.99 2799,-300.08 2799,-367 2799,-558 2799,-558 2799,-558 2799,-613.21 2784.77,-677.12 2776.6,-709.26"/>
</g>
<!-- M_2&#45;&gt;System_4_1 -->
<g id="edge24" class="edge">
<title>M_2&#45;&gt;System_4_1</title>
<path fill="none" stroke="#112c5f" stroke-width="2" d="M842.62,-355.28C863.6,-342.76 897.39,-322.58 923.67,-306.89"/>
<polygon fill="#112c5f" stroke="#112c5f" stroke-width="2" points="925.48,-309.88 932.27,-301.75 921.89,-303.87 925.48,-309.88"/>
</g>
<!-- R_2 -->
<g id="node54" class="node">
<title>R_2</title>
<g id="a_node54"><a xlink:href="morph://MorpheusModel/CellTypes/CellType[1]/Property[2]" xlink:title="R">
<ellipse fill="#d3d247" stroke="black" cx="243" cy="-205" rx="27" ry="18"/>
<text text-anchor="middle" x="243" y="-201.3" font-family="Times,serif" font-size="14.00">R</text>
</a>
</g>
</g>
<!-- R_2&#45;&gt;R_0 -->
<g id="edge31" class="edge">
<title>R_2&#45;&gt;R_0</title>
<path fill="none" stroke="#38568c" stroke-dasharray="5,2" d="M216.08,-203.37C191.59,-201.63 155.36,-196.07 129,-179 116.07,-170.63 105.84,-156.54 98.96,-144.84"/>
</g>
<!-- R_2&#45;&gt;DirectedMotion_2_9504528359561386930 -->
<g id="edge30" class="edge">
<title>R_2&#45;&gt;DirectedMotion_2_9504528359561386930</title>
<path fill="none" stroke="#112c5f" stroke-width="2" d="M263.01,-192.71C268.08,-190.37 273.61,-188.25 279,-187 311.48,-179.49 848.06,-191.41 879,-179 891.49,-173.99 902.91,-164.92 912.25,-155.63"/>
<polygon fill="#112c5f" stroke="#112c5f" stroke-width="2" points="914.94,-157.87 919.27,-148.2 909.86,-153.06 914.94,-157.87"/>
</g>
<!-- Y_2 -->
<g id="node55" class="node">
<title>Y_2</title>
<g id="a_node55"><a xlink:href="morph://MorpheusModel/CellTypes/CellType[1]/Property[0]" xlink:title="Y">
<ellipse fill="#d3d247" stroke="black" cx="829" cy="-205" rx="27" ry="18"/>
<text text-anchor="middle" x="829" y="-201.3" font-family="Times,serif" font-size="14.00">Y</text>
</a>
</g>
</g>
<!-- Y_2&#45;&gt;Y_0 -->
<g id="edge43" class="edge">
<title>Y_2&#45;&gt;Y_0</title>
<path fill="none" stroke="#38568c" stroke-dasharray="5,2" d="M808.53,-192.86C803.57,-190.58 798.2,-188.44 793,-187 572.14,-125.85 292.59,-123.34 200.2,-124.38"/>
</g>
<!-- av_2&#45;&gt;System_4_1 -->
<g id="edge46" class="edge">
<title>av_2&#45;&gt;System_4_1</title>
<path fill="none" stroke="#112c5f" stroke-width="2" d="M907.29,-351.78C915.53,-341.56 926.69,-327.75 936.77,-315.25"/>
<polygon fill="#112c5f" stroke="#112c5f" stroke-width="2" points="939.65,-317.26 943.21,-307.28 934.2,-312.87 939.65,-317.26"/>
</g>
<!-- avspeed_2 -->
<g id="node57" class="node">
<title>avspeed_2</title>
<g id="a_node57"><a xlink:href="morph://MorpheusModel/CellTypes/CellType[1]/Property[5]" xlink:title="avspeed">
<ellipse fill="#d3d247" stroke="black" cx="327" cy="-205" rx="38.99" ry="18"/>
<text text-anchor="middle" x="327" y="-201.3" font-family="Times,serif" font-size="14.00">avspeed</text>
</a>
</g>
</g>
<!-- avspeed2_2 -->
<g id="node58" class="node">
<title>avspeed2_2</title>
<g id="a_node58"><a xlink:href="morph://MorpheusModel/CellTypes/CellType[1]/Property[7]" xlink:title="avspeed2">
<ellipse fill="#d3d247" stroke="black" cx="428" cy="-205" rx="43.59" ry="18"/>
<text text-anchor="middle" x="428" y="-201.3" font-family="Times,serif" font-size="14.00">avspeed2</text>
</a>
</g>
</g>
<!-- cell_center_2&#45;&gt;cell_center_0 -->
<g id="edge52" class="edge">
<title>cell_center_2&#45;&gt;cell_center_0</title>
<path fill="none" stroke="#38568c" stroke-dasharray="5,2" d="M669.39,-639.48C725.61,-633.93 824.33,-624.35 909,-617 959.63,-612.6 1328.96,-616.84 1365,-581 1390.47,-555.67 1385.94,-510.03 1380.42,-483.39"/>
</g>
<!-- cell_center_2&#45;&gt;MotilityReporter_2_50 -->
<g id="edge49" class="edge">
<title>cell_center_2&#45;&gt;MotilityReporter_2_50</title>
<path fill="none" stroke="#112c5f" stroke-width="2" d="M658.39,-632.49C698.02,-619.23 764.06,-597.13 813.95,-580.44"/>
<polygon fill="#112c5f" stroke="#112c5f" stroke-width="2" points="815.33,-583.67 823.7,-577.17 813.11,-577.03 815.33,-583.67"/>
</g>
<!-- cell_center_2&#45;&gt;NeighborhoodReporter_2_1 -->
<g id="edge51" class="edge">
<title>cell_center_2&#45;&gt;NeighborhoodReporter_2_1</title>
<path fill="none" stroke="#112c5f" stroke-width="2" d="M643.49,-628.21C680.92,-597.88 763.41,-531.04 811.4,-492.15"/>
<polygon fill="#112c5f" stroke="#112c5f" stroke-width="2" points="813.8,-494.71 819.37,-485.7 809.4,-489.27 813.8,-494.71"/>
</g>
<!-- cell_center_2&#45;&gt;NeighborhoodReporter_2_0 -->
<g id="edge50" class="edge">
<title>cell_center_2&#45;&gt;NeighborhoodReporter_2_0</title>
<path fill="none" stroke="#112c5f" stroke-width="2" d="M599.41,-629.42C591.21,-624.98 581.89,-620.39 573,-617 565.66,-614.2 488.14,-595.29 423.16,-579.62"/>
<polygon fill="#112c5f" stroke="#112c5f" stroke-width="2" points="423.81,-576.18 413.26,-577.23 422.17,-582.98 423.81,-576.18"/>
</g>
<!-- cell_center_x_2 -->
<g id="node60" class="node">
<title>cell_center_x_2</title>
<ellipse fill="#d3d247" stroke="black" cx="492" cy="-557" rx="53.89" ry="18"/>
<text text-anchor="middle" x="492" y="-553.3" font-family="Times,serif" font-size="14.00">cell.center.x</text>
</g>
<!-- cell_center_2&#45;&gt;cell_center_x_2 -->
<g id="edge53" class="edge">
<title>cell_center_2&#45;&gt;cell_center_x_2</title>
<path fill="none" stroke="#38568c" stroke-dasharray="5,2" d="M601.01,-629.02C577.08,-613.43 539.78,-589.13 515.62,-573.39"/>
</g>
<!-- cell_center_x_2&#45;&gt;CellDivision_2_1 -->
<g id="edge56" class="edge">
<title>cell_center_x_2&#45;&gt;CellDivision_2_1</title>
<path fill="none" stroke="#112c5f" stroke-width="2" d="M482.35,-539.28C475.21,-526.93 465.27,-509.72 456.61,-494.73"/>
<polygon fill="#112c5f" stroke="#112c5f" stroke-width="2" points="459.46,-492.65 451.42,-485.74 453.39,-496.15 459.46,-492.65"/>
</g>
<!-- cell_center_x_2&#45;&gt;CellDeath_2_5386813627640286968_1 -->
<g id="edge55" class="edge">
<title>cell_center_x_2&#45;&gt;CellDeath_2_5386813627640286968_1</title>
<path fill="none" stroke="#112c5f" stroke-width="2" d="M514.09,-540.35C528.61,-530.07 548.3,-516.12 567.01,-502.87"/>
<polygon fill="#112c5f" stroke="#112c5f" stroke-width="2" points="569.1,-505.68 575.24,-497.04 565.05,-499.97 569.1,-505.68"/>
</g>
<!-- cell_center_x_2&#45;&gt;System_4_1 -->
<g id="edge57" class="edge">
<title>cell_center_x_2&#45;&gt;System_4_1</title>
<path fill="none" stroke="#112c5f" stroke-width="2" d="M452.04,-544.75C428.63,-535.88 400.99,-520.91 387,-497 371.06,-469.76 367.54,-450.84 387,-426 454.08,-340.34 803.15,-299.27 922.19,-287.6"/>
<polygon fill="#112c5f" stroke="#112c5f" stroke-width="2" points="922.7,-291.07 932.32,-286.62 922.03,-284.1 922.7,-291.07"/>
</g>
<!-- cell_type_2 -->
<g id="node61" class="node">
<title>cell_type_2</title>
<g id="a_node61"><a xlink:href="morph://MorpheusModel/CellTypes/CellType[1]" xlink:title="cell.type">
<ellipse fill="#d3d247" stroke="black" cx="959" cy="-645" rx="40.89" ry="18"/>
<text text-anchor="middle" x="959" y="-641.3" font-family="Times,serif" font-size="14.00">cell.type</text>
</a>
</g>
</g>
<!-- cell_type_2&#45;&gt;cell_type_0 -->
<g id="edge61" class="edge">
<title>cell_type_2&#45;&gt;cell_type_0</title>
<path fill="none" stroke="#38568c" stroke-dasharray="5,2" d="M981.61,-629.76C988.69,-625.49 996.58,-620.91 1004,-617 1035.92,-600.19 1073.56,-583.3 1099.91,-571.92"/>
</g>
<!-- d_2&#45;&gt;d_0 -->
<g id="edge65" class="edge">
<title>d_2&#45;&gt;d_0</title>
<path fill="none" stroke="#38568c" stroke-dasharray="5,2" d="M982.79,-444.7C988.11,-437.62 995.37,-429.98 1004,-426 1144.08,-361.36 2241.83,-425.36 2392,-390 2399.05,-388.34 2406.32,-385.51 2412.9,-382.45"/>
</g>
<!-- d_abs_2 -->
<g id="node63" class="node">
<title>d_abs_2</title>
<ellipse fill="#d3d247" stroke="black" cx="969" cy="-368" rx="29.5" ry="18"/>
<text text-anchor="middle" x="969" y="-364.3" font-family="Times,serif" font-size="14.00">d.abs</text>
</g>
<!-- d_2&#45;&gt;d_abs_2 -->
<g id="edge66" class="edge">
<title>d_2&#45;&gt;d_abs_2</title>
<path fill="none" stroke="#38568c" stroke-dasharray="5,2" d="M972.25,-443.29C971.53,-426.93 970.46,-402.47 969.75,-386.13"/>
</g>
<!-- d_abs_2&#45;&gt;Logger_0_1 -->
<g id="edge68" class="edge">
<title>d_abs_2&#45;&gt;Logger_0_1</title>
<path fill="none" stroke="#112c5f" stroke-width="2" d="M986.61,-353.26C991.35,-350.29 996.66,-347.57 1002,-346 1041.23,-334.46 2433.51,-343.7 2474,-338 2528.93,-330.27 2590.29,-311.07 2628.53,-297.78"/>
<polygon fill="#112c5f" stroke="#112c5f" stroke-width="2" points="2629.94,-301 2638.2,-294.37 2627.61,-294.4 2629.94,-301"/>
</g>
<!-- d_abs_2&#45;&gt;System_4_1 -->
<g id="edge69" class="edge">
<title>d_abs_2&#45;&gt;System_4_1</title>
<path fill="none" stroke="#112c5f" stroke-width="2" d="M967.55,-349.8C966.76,-340.45 965.76,-328.55 964.82,-317.45"/>
<polygon fill="#112c5f" stroke="#112c5f" stroke-width="2" points="968.28,-316.83 963.95,-307.16 961.31,-317.42 968.28,-316.83"/>
</g>
<!-- dist_2 -->
<g id="node64" class="node">
<title>dist_2</title>
<g id="a_node64"><a xlink:href="morph://MorpheusModel/CellTypes/CellType[1]/Property[4]" xlink:title="dist">
<ellipse fill="#d3d247" stroke="black" cx="517" cy="-205" rx="27" ry="18"/>
<text text-anchor="middle" x="517" y="-201.3" font-family="Times,serif" font-size="14.00">dist</text>
</a>
</g>
</g>
<!-- truavspeed_2 -->
<g id="node66" class="node">
<title>truavspeed_2</title>
<g id="a_node66"><a xlink:href="morph://MorpheusModel/CellTypes/CellType[1]/Property[6]" xlink:title="truavspeed">
<ellipse fill="#d3d247" stroke="black" cx="611" cy="-205" rx="48.99" ry="18"/>
<text text-anchor="middle" x="611" y="-201.3" font-family="Times,serif" font-size="14.00">truavspeed</text>
</a>
</g>
</g>
<!-- truavspeed2_2 -->
<g id="node67" class="node">
<title>truavspeed2_2</title>
<g id="a_node67"><a xlink:href="morph://MorpheusModel/CellTypes/CellType[1]/Property[8]" xlink:title="truavspeed2">
<ellipse fill="#d3d247" stroke="black" cx="731" cy="-205" rx="53.09" ry="18"/>
<text text-anchor="middle" x="731" y="-201.3" font-family="Times,serif" font-size="14.00">truavspeed2</text>
</a>
</g>
</g>
<!-- System_4_1&#45;&gt;Cr_2 -->
<g id="edge33" class="edge">
<title>System_4_1&#45;&gt;Cr_2</title>
<path fill="none" stroke="#8f100d" stroke-width="3" d="M943.37,-258.78C935.78,-249.33 927.03,-238.43 919.46,-229"/>
<polygon fill="#8f100d" stroke="#8f100d" stroke-width="3" points="922.16,-226.77 913.17,-221.16 916.7,-231.15 922.16,-226.77"/>
</g>
<!-- System_4_1&#45;&gt;E_2 -->
<g id="edge34" class="edge">
<title>System_4_1&#45;&gt;E_2</title>
<path fill="none" stroke="#8f100d" stroke-width="3" d="M965.36,-258.78C966.53,-250.68 967.86,-241.52 969.07,-233.12"/>
<polygon fill="#8f100d" stroke="#8f100d" stroke-width="3" points="972.56,-233.44 970.53,-223.04 965.64,-232.44 972.56,-233.44"/>
</g>
<!-- System_4_1&#45;&gt;R_2 -->
<g id="edge35" class="edge">
<title>System_4_1&#45;&gt;R_2</title>
<path fill="none" stroke="#8f100d" stroke-width="3" d="M932.39,-280.84C818.02,-276.13 405.25,-257.08 279,-223 277.05,-222.47 275.07,-221.84 273.1,-221.14"/>
<polygon fill="#8f100d" stroke="#8f100d" stroke-width="3" points="274.04,-217.75 263.46,-217.19 271.38,-224.22 274.04,-217.75"/>
</g>
<!-- System_4_1&#45;&gt;Y_2 -->
<g id="edge36" class="edge">
<title>System_4_1&#45;&gt;Y_2</title>
<path fill="none" stroke="#8f100d" stroke-width="3" d="M932.48,-265.13C910.25,-252.43 879.93,-235.11 857.86,-222.49"/>
<polygon fill="#8f100d" stroke="#8f100d" stroke-width="3" points="859.38,-219.33 848.96,-217.4 855.9,-225.4 859.38,-219.33"/>
</g>
<!-- System_4_1&#45;&gt;avspeed_2 -->
<g id="edge38" class="edge">
<title>System_4_1&#45;&gt;avspeed_2</title>
<path fill="none" stroke="#8f100d" stroke-width="3" d="M932.28,-281.52C845.43,-279.59 584.89,-270 375,-223 371.81,-222.29 368.54,-221.42 365.27,-220.47"/>
<polygon fill="#8f100d" stroke="#8f100d" stroke-width="3" points="366.2,-217.09 355.61,-217.39 364.07,-223.76 366.2,-217.09"/>
</g>
<!-- System_4_1&#45;&gt;avspeed2_2 -->
<g id="edge37" class="edge">
<title>System_4_1&#45;&gt;avspeed2_2</title>
<path fill="none" stroke="#8f100d" stroke-width="3" d="M932.39,-280.31C856.56,-275.58 649.46,-260 481,-223 477.34,-222.2 473.57,-221.25 469.81,-220.21"/>
<polygon fill="#8f100d" stroke="#8f100d" stroke-width="3" points="470.55,-216.78 459.97,-217.32 468.58,-223.5 470.55,-216.78"/>
</g>
<!-- System_4_1&#45;&gt;dist_2 -->
<g id="edge39" class="edge">
<title>System_4_1&#45;&gt;dist_2</title>
<path fill="none" stroke="#8f100d" stroke-width="3" d="M932.34,-280.74C864.04,-277.19 690.92,-264.49 553,-223 551.06,-222.42 549.1,-221.75 547.14,-221.01"/>
<polygon fill="#8f100d" stroke="#8f100d" stroke-width="3" points="548.1,-217.62 537.52,-216.97 545.39,-224.07 548.1,-217.62"/>
</g>
<!-- System_4_1&#45;&gt;truavspeed_2 -->
<g id="edge41" class="edge">
<title>System_4_1&#45;&gt;truavspeed_2</title>
<path fill="none" stroke="#8f100d" stroke-width="3" d="M932.28,-276.89C879.15,-267.57 764.47,-246.56 669,-223 665.16,-222.05 661.18,-221.01 657.21,-219.93"/>
<polygon fill="#8f100d" stroke="#8f100d" stroke-width="3" points="657.95,-216.51 647.38,-217.18 656.07,-223.25 657.95,-216.51"/>
</g>
<!-- System_4_1&#45;&gt;truavspeed2_2 -->
<g id="edge40" class="edge">
<title>System_4_1&#45;&gt;truavspeed2_2</title>
<path fill="none" stroke="#8f100d" stroke-width="3" d="M932.27,-272.22C893.11,-259.33 823.8,-236.53 777.62,-221.34"/>
<polygon fill="#8f100d" stroke="#8f100d" stroke-width="3" points="778.45,-217.93 767.85,-218.12 776.26,-224.57 778.45,-217.93"/>
</g>
</g>
</svg>
