<?xml version="1.0" encoding="UTF-8" standalone="no"?> <svg xmlns="http://www.w3.org/2000/svg" xmlns:xlink="http://www.w3.org/1999/xlink" width="270pt" height="313pt" viewBox="0.00 0.00 270.00 312.80">
<g id="graph0" class="graph" transform="scale(1 1) rotate(0) translate(4 308.8)">
<title style="">%0</title>
<polygon fill="#ffffff" stroke="transparent" points="-4,4 -4,-308.8 266,-308.8 266,4 -4,4" style=""></polygon>
<g id="clust1" class="cluster">
<title style="">cluster</title>
<polygon fill="#234178" fill-opacity="0.184314" stroke="#000000" points="8,-8 8,-296.8 254,-296.8 254,-8 8,-8" style=""></polygon>
<text text-anchor="middle" x="131" y="-280.2" font-family="Times,serif" font-size="14.00" fill="#000000">Global</text>
</g>
<g id="clust2" class="cluster">
<title style="">cluster_1</title>
<polygon fill="#234178" fill-opacity="0.184314" stroke="#000000" points="98,-198 98,-264 166,-264 166,-198 98,-198" style=""></polygon>
</g>
<g id="clust3" class="cluster">
<title style="">cluster_2</title>
<polygon fill="#234178" fill-opacity="0.184314" stroke="#000000" points="71,-16 71,-106 183,-106 183,-16 71,-16" style=""></polygon>
</g>
<!-- Logger_0_1 -->
<g id="node1" class="node">
<title style="">Logger_0_1</title>
<g id="a_node1">">
<polygon fill="#fffea3" stroke="transparent" points="244.5,-86 193.5,-86 193.5,-36 244.5,-36 244.5,-86" style=""></polygon>
<text text-anchor="start" x="197.8423" y="-68.5" font-family="times" font-size="15.00" fill="#000000">Logger</text>
<text text-anchor="start" x="215.75" y="-44.5" font-family="times" font-size="15.00" fill="#000000">1</text>
<polygon fill="#000000" stroke="#000000" points="194,-61 194,-61 245,-61 245,-61 194,-61" style=""></polygon>
<polygon fill="none" stroke="#000000" points="193.5,-36 193.5,-86 244.5,-86 244.5,-36 193.5,-36" style=""></polygon>
</g>
</g>
<!-- Voltage_0 -->
<g id="node2" class="node">
<title style="">Voltage_0</title>
<g id="a_node2">
<ellipse fill="#d3d247" stroke="#000000" cx="132" cy="-152" rx="41.7114" ry="18" style=""></ellipse>
<text text-anchor="middle" x="132" y="-147.8" font-family="Times,serif" font-size="14.00" fill="#000000">Voltage</text>
</g>
</g>
<!-- Voltage_0&#45;&gt;Logger_0_1 -->
<g id="edge4" class="edge">
<title style="">Voltage_0-&gt;Logger_0_1</title>
<path fill="none" stroke="#112c5f" stroke-width="2" d="M153.2231,-136.3419C163.9285,-127.9411 176.7749,-117.0597 187,-106 190.3231,-102.4057 193.5936,-98.4549 196.7004,-94.4329" style=""></path>
<polygon fill="#112c5f" stroke="#112c5f" stroke-width="2" points="199.6802,-96.2898 202.8117,-86.1683 194.0519,-92.1278 199.6802,-96.2898" style=""></polygon>
</g>
<!-- Event_2_15091843097475465981_0_04 -->
<g id="node6" class="node">
<title style="">Event_2_15091843097475465981_0_04</title>
<g id="a_node6">">
<polygon fill="#fffea3" stroke="transparent" points="175.5,-98 78.5,-98 78.5,-24 175.5,-24 175.5,-98" style=""></polygon>
<text text-anchor="start" x="110.0048" y="-80.5" font-family="times" font-size="15.00" fill="#000000">Event</text>
<text text-anchor="start" x="82.734" y="-57.5" font-family="times" font-style="italic" font-size="15.00" fill="#000000">'reset Voltage'</text>
<text text-anchor="start" x="114.375" y="-32.5" font-family="times" font-size="15.00" fill="#000000">0.04</text>
<polygon fill="#000000" stroke="#000000" points="79,-49 79,-49 176,-49 176,-49 79,-49" style=""></polygon>
<polygon fill="none" stroke="#000000" points="78.5,-24 78.5,-98 175.5,-98 175.5,-24 78.5,-24" style=""></polygon>
</g>
</g>
<!-- Voltage_0&#45;&gt;Event_2_15091843097475465981_0_04 -->
<g id="edge3" class="edge">
<title style="">Voltage_0-&gt;Event_2_15091843097475465981_0_04</title>
<path fill="none" stroke="#112c5f" stroke-width="2" d="M136.5159,-134.0213C136.8872,-126.4897 136.799,-117.3465 136.3349,-108.1146" style=""></path>
<polygon fill="#112c5f" stroke="#112c5f" stroke-width="2" points="139.8276,-107.8868 135.6879,-98.1342 132.8423,-108.3397 139.8276,-107.8868" style=""></polygon>
</g>
<!-- Vt_0 -->
<g id="node3" class="node">
<title style="">Vt_0</title>
<g id="a_node3">
<ellipse fill="#d3d247" stroke="#000000" cx="219" cy="-152" rx="27" ry="18" style=""></ellipse>
<text text-anchor="middle" x="219" y="-147.8" font-family="Times,serif" font-size="14.00" fill="#000000">Vt</text>
</g>
</g>
<!-- Vt_0&#45;&gt;Logger_0_1 -->
<g id="edge6" class="edge">
<title style="">Vt_0-&gt;Logger_0_1</title>
<path fill="none" stroke="#112c5f" stroke-width="2" d="M219,-133.5848C219,-122.9544 219,-109.2229 219,-96.5687" style=""></path>
<polygon fill="#112c5f" stroke="#112c5f" stroke-width="2" points="222.5001,-96.2843 219,-86.2844 215.5001,-96.2844 222.5001,-96.2843" style=""></polygon>
</g>
<!-- Vt_0&#45;&gt;Event_2_15091843097475465981_0_04 -->
<g id="edge5" class="edge">
<title style="">Vt_0-&gt;Event_2_15091843097475465981_0_04</title>
<path fill="none" stroke="#112c5f" stroke-width="2" d="M203.8081,-136.9732C194.9325,-128.1941 183.2251,-116.6139 171.6334,-105.1482" style=""></path>
<polygon fill="#112c5f" stroke="#112c5f" stroke-width="2" points="174.0282,-102.5941 164.4572,-98.0501 169.1055,-107.5708 174.0282,-102.5941" style=""></polygon>
</g>
<!-- time_0 -->
<g id="node4" class="node">
<title style="">time_0</title>
<g id="a_node4">
<ellipse fill="#d3d247" stroke="#000000" cx="44" cy="-152" rx="28.4069" ry="18" style=""></ellipse>
<text text-anchor="middle" x="44" y="-147.8" font-family="Times,serif" font-size="14.00" fill="#000000">time</text>
</g>
</g>
<!-- time_0&#45;&gt;Event_2_15091843097475465981_0_04 -->
<g id="edge7" class="edge">
<title style="">time_0-&gt;Event_2_15091843097475465981_0_04</title>
<path fill="none" stroke="#112c5f" stroke-width="2" d="M58.4575,-136.149C66.2313,-127.6259 76.2474,-116.6444 86.209,-105.7226" style=""></path>
<polygon fill="#112c5f" stroke="#112c5f" stroke-width="2" points="88.9157,-107.9489 93.0686,-98.2019 83.7438,-103.2317 88.9157,-107.9489" style=""></polygon>
</g>
<!-- System_1_0_04 -->
<g id="node5" class="node">
<title style="">System_1_0_04</title>
<g id="a_node5">">
<polygon fill="#fffea3" stroke="transparent" points="158,-256 106,-256 106,-206 158,-206 158,-256" style=""></polygon>
<text text-anchor="start" x="109.9163" y="-238.5" font-family="times" font-size="15.00" fill="#000000">System</text>
<text text-anchor="start" x="118.875" y="-214.5" font-family="times" font-size="15.00" fill="#000000">0.04</text>
<polygon fill="#000000" stroke="#000000" points="106,-231 106,-231 158,-231 158,-231 106,-231" style=""></polygon>
<polygon fill="none" stroke="#000000" points="106,-206 106,-256 158,-256 158,-206 106,-206" style=""></polygon>
</g>
</g>
<!-- System_1_0_04&#45;&gt;Voltage_0 -->
<g id="edge2" class="edge">
<title style="">System_1_0_04-&gt;Voltage_0</title>
<path fill="none" stroke="#8f100d" stroke-width="3" d="M132,-205.5691C132,-197.5402 132,-188.6193 132,-180.397" style=""></path>
<polygon fill="#8f100d" stroke="#8f100d" stroke-width="3" points="135.5001,-180.1242 132,-170.1242 128.5001,-180.1242 135.5001,-180.1242" style=""></polygon>
</g>
<!-- Event_2_15091843097475465981_0_04&#45;&gt;Voltage_0 -->
<g id="edge1" class="edge">
<title style="">Event_2_15091843097475465981_0_04-&gt;Voltage_0</title>
<path fill="none" stroke="#8f100d" stroke-width="3" d="M122.3928,-98.1342C122.6529,-106.7472 123.2683,-115.7744 124.168,-123.9234" style=""></path>
<polygon fill="#8f100d" stroke="#8f100d" stroke-width="3" points="120.7229,-124.5689 125.5084,-134.0213 127.662,-123.6477 120.7229,-124.5689" style=""></polygon>
</g>
</g>
</svg>