<?xml version="1.0" encoding="UTF-8" standalone="no"?> <svg xmlns="http://www.w3.org/2000/svg" xmlns:xlink="http://www.w3.org/1999/xlink" width="3893pt" height="522pt" viewBox="0.00 0.00 3893 522.4">
<g id="graph0" class="graph" transform="translate(4, 518.4000244140625)">
<title>%0</title>
<polygon fill="#ffffff" stroke="transparent" points="-4,4 -4,-518.4 3889,-518.4 3889,4 -4,4"></polygon>
<g id="clust1" class="cluster">
<title>cluster</title>
<polygon fill="#234178" fill-opacity="0.184314" stroke="#000000" points="8,-8 8,-506.4 3877,-506.4 3877,-8 8,-8"></polygon>
<text text-anchor="middle" x="1942.5" y="-489.8" font-family="Times,serif" font-size="14.00" fill="#000000">Global</text>
</g>
<g id="clust4" class="cluster">
<title>cluster_3</title>
<polygon fill="#234178" fill-opacity="0.184314" stroke="#000000" points="1233,-138 1233,-204 1313,-204 1313,-138 1233,-138"></polygon>
</g>
<g id="clust6" class="cluster">
<title>cluster_5</title>
<polygon fill="#234178" fill-opacity="0.184314" stroke="#000000" points="3389,-248.8 3389,-454.6 3869,-454.6 3869,-248.8 3389,-248.8"></polygon>
<text text-anchor="middle" x="3629" y="-438" font-family="Times,serif" font-size="14.00" fill="#000000">CellType[infectious]</text>
</g>
<g id="clust8" class="cluster">
<title>cluster_6</title>
<polygon fill="#234178" fill-opacity="0.184314" stroke="#000000" points="2085,-126 2085,-473.6 2925,-473.6 2925,-126 2085,-126"></polygon>
<text text-anchor="middle" x="2505" y="-457" font-family="Times,serif" font-size="14.00" fill="#000000">CellType[dead]</text>
</g>
<g id="clust14" class="cluster">
<title>cluster_7</title>
<polygon fill="#234178" fill-opacity="0.184314" stroke="#000000" points="2933,-248.8 2933,-454.6 3381,-454.6 3381,-248.8 2933,-248.8"></polygon>
<text text-anchor="middle" x="3157" y="-438" font-family="Times,serif" font-size="14.00" fill="#000000">CellType[exposed]</text>
</g>
<g id="clust16" class="cluster">
<title>cluster_8</title>
<polygon fill="#234178" fill-opacity="0.184314" stroke="#000000" points="16,-126 16,-473.6 917,-473.6 917,-126 16,-126"></polygon>
<text text-anchor="middle" x="466.5" y="-457" font-family="Times,serif" font-size="14.00" fill="#000000">CellType[susceptible]</text>
</g>
<g id="clust21" class="cluster">
<title>cluster_9</title>
<polygon fill="#234178" fill-opacity="0.184314" stroke="#000000" points="1410,-16 1410,-240.8 1840,-240.8 1840,-16 1410,-16"></polygon>
<text text-anchor="middle" x="1625" y="-224.2" font-family="Times,serif" font-size="14.00" fill="#000000">CellType[antiviral]</text>
</g>
<!-- Logger_0_10 -->
<g id="node1" class="node">
<title>Logger_0_10</title>
<g id="a_node1">">
<polygon fill="#fffea3" stroke="transparent" points="1959.5,-196 1908.5,-196 1908.5,-146 1959.5,-146 1959.5,-196"></polygon>
<text text-anchor="start" x="1912.8423" y="-178.5" font-family="times" font-size="15.00" fill="#000000">Logger</text>
<text text-anchor="start" x="1927" y="-154.5" font-family="times" font-size="15.00" fill="#000000">10</text>
<polygon fill="#000000" stroke="#000000" points="1909,-171 1909,-171 1960,-171 1960,-171 1909,-171"></polygon>
<polygon fill="none" stroke="#000000" points="1908.5,-146 1908.5,-196 1959.5,-196 1959.5,-146 1908.5,-146"></polygon>
</g>
</g>
<!-- N_SAE_0 -->
<g id="node2" class="node">
<title>N_SAE_0</title>
<g id="a_node2">
<ellipse fill="#d3d247" stroke="#000000" cx="1964" cy="-293.8" rx="41.1509" ry="18"></ellipse>
<text text-anchor="middle" x="1964" y="-289.6" font-family="Times,serif" font-size="14.00" fill="#000000">N_SAE</text>
</g>
</g>
<!-- N_SAE_0&#45;&gt;Logger_0_10 -->
<g id="edge1" class="edge">
<title>N_SAE_0-&gt;Logger_0_10</title>
<path fill="none" stroke="#112c5f" stroke-width="2" d="M1959.5734,-275.6804C1955.107,-257.398 1948.0959,-228.6992 1942.5435,-205.9713"></path>
<polygon fill="#112c5f" stroke="#112c5f" stroke-width="2" points="1945.8827,-204.8914 1940.1094,-196.0077 1939.0826,-206.5527 1945.8827,-204.8914"></polygon>
</g>
<!-- P_A_0 -->
<g id="node3" class="node">
<title>P_A_0</title>
<g id="a_node3">
<ellipse fill="#d3d247" stroke="#000000" cx="1228" cy="-61" rx="28.4107" ry="18"></ellipse>
<text text-anchor="middle" x="1228" y="-56.8" font-family="Times,serif" font-size="14.00" fill="#000000">P_A</text>
</g>
</g>
<!-- P_D_0 -->
<g id="node4" class="node">
<title>P_D_0</title>
<g id="a_node4">
<ellipse fill="#d3d247" stroke="#000000" cx="1302" cy="-61" rx="28.4107" ry="18"></ellipse>
<text text-anchor="middle" x="1302" y="-56.8" font-family="Times,serif" font-size="14.00" fill="#000000">P_D</text>
</g>
</g>
<!-- P_E_0 -->
<g id="node5" class="node">
<title>P_E_0</title>
<g id="a_node5">
<ellipse fill="#d3d247" stroke="#000000" cx="1375" cy="-61" rx="27.2661" ry="18"></ellipse>
<text text-anchor="middle" x="1375" y="-56.8" font-family="Times,serif" font-size="14.00" fill="#000000">P_E</text>
</g>
</g>
<!-- P_I_0 -->
<g id="node6" class="node">
<title>P_I_0</title>
<g id="a_node6">
<ellipse fill="#d3d247" stroke="#000000" cx="1083" cy="-61" rx="27" ry="18"></ellipse>
<text text-anchor="middle" x="1083" y="-56.8" font-family="Times,serif" font-size="14.00" fill="#000000">P_I</text>
</g>
</g>
<!-- P_S_0 -->
<g id="node7" class="node">
<title>P_S_0</title>
<g id="a_node7">
<ellipse fill="#d3d247" stroke="#000000" cx="1155" cy="-61" rx="27" ry="18"></ellipse>
<text text-anchor="middle" x="1155" y="-56.8" font-family="Times,serif" font-size="14.00" fill="#000000">P_S</text>
</g>
</g>
<!-- alpha_0 -->
<g id="node8" class="node">
<title>alpha_0</title>
<g id="a_node8">
<ellipse fill="#d3d247" stroke="#000000" cx="1189" cy="-293.8" rx="31.9012" ry="18"></ellipse>
<text text-anchor="middle" x="1189" y="-289.6" font-family="Times,serif" font-size="14.00" fill="#000000">alpha</text>
</g>
</g>
<!-- System_3_0_16666666667 -->
<g id="node22" class="node">
<title>System_3_0_16666666667</title>
<g id="a_node22">">
<polygon fill="#fffea3" stroke="transparent" points="1305,-196 1241,-196 1241,-146 1305,-146 1305,-196"></polygon>
<text text-anchor="start" x="1250.9162999999999" y="-178.5" font-family="times" font-size="15.00" fill="#000000">System</text>
<text text-anchor="start" x="1244.875" y="-154.5" font-family="times" font-size="15.00" fill="#000000">0.166667</text>
<polygon fill="#000000" stroke="#000000" points="1241,-171 1241,-171 1305,-171 1305,-171 1241,-171"></polygon>
<polygon fill="none" stroke="#000000" points="1241,-146 1241,-196 1305,-196 1305,-146 1241,-146"></polygon>
</g>
</g>
<!-- alpha_0&#45;&gt;System_3_0_16666666667 -->
<g id="edge13" class="edge">
<title>alpha_0-&gt;System_3_0_16666666667</title>
<path fill="none" stroke="#112c5f" stroke-width="2" d="M1200.5037,-276.9827C1213.2295,-258.3788 1234.0594,-227.9274 1250.1337,-204.4283"></path>
<polygon fill="#112c5f" stroke="#112c5f" stroke-width="2" points="1253.0598,-206.3499 1255.8169,-196.1201 1247.2822,-202.3977 1253.0598,-206.3499"></polygon>
</g>
<!-- b_0 -->
<g id="node9" class="node">
<title>b_0</title>
<g id="a_node9">
<ellipse fill="#d3d247" stroke="#000000" cx="2050" cy="-293.8" rx="27" ry="18"></ellipse>
<text text-anchor="middle" x="2050" y="-289.6" font-family="Times,serif" font-size="14.00" fill="#000000">b</text>
</g>
</g>
<!-- ChangeCellType_6_504437279156551550_0_16666666667 -->
<g id="node32" class="node">
<title>ChangeCellType_6_504437279156551550_0_16666666667</title>
<g id="a_node32">">
<polygon fill="#fffea3" stroke="transparent" points="2487,-208 2093,-208 2093,-134 2487,-134 2487,-208"></polygon>
<text text-anchor="start" x="2239.1793" y="-190.5" font-family="times" font-size="15.00" fill="#000000">ChangeCellType</text>
<text text-anchor="start" x="2096.7468" y="-167.5" font-family="times" font-style="italic" font-size="15.00" fill="#000000">'Regeneration of dead cells because of antiviral neighbour cells'</text>
<text text-anchor="start" x="2261.875" y="-142.5" font-family="times" font-size="15.00" fill="#000000">0.166667</text>
<polygon fill="#000000" stroke="#000000" points="2093,-159 2093,-159 2487,-159 2487,-159 2093,-159"></polygon>
<polygon fill="none" stroke="#000000" points="2093,-134 2093,-208 2487,-208 2487,-134 2093,-134"></polygon>
</g>
</g>
<!-- b_0&#45;&gt;ChangeCellType_6_504437279156551550_0_16666666667 -->
<g id="edge15" class="edge">
<title>b_0-&gt;ChangeCellType_6_504437279156551550_0_16666666667</title>
<path fill="none" stroke="#112c5f" stroke-width="2" d="M2058.569,-276.4568C2063.9142,-267.1634 2071.5713,-256.1474 2081,-248.8 2099.8561,-234.1063 2121.7742,-221.9748 2144.1803,-212.0242"></path>
<polygon fill="#112c5f" stroke="#112c5f" stroke-width="2" points="2145.6573,-215.199 2153.4625,-208.0345 2142.8931,-208.7679 2145.6573,-215.199"></polygon>
</g>
<!-- ChangeCellType_6_16506506795717299273_0_16666666667 -->
<g id="node33" class="node">
<title>ChangeCellType_6_16506506795717299273_0_16666666667</title>
<g id="a_node33">">
<polygon fill="#fffea3" stroke="transparent" points="2916.5,-208 2505.5,-208 2505.5,-134 2916.5,-134 2916.5,-208"></polygon>
<text text-anchor="start" x="2660.6793" y="-190.5" font-family="times" font-size="15.00" fill="#000000">ChangeCellType</text>
<text text-anchor="start" x="2509.915" y="-167.5" font-family="times" font-style="italic" font-size="15.00" fill="#000000">'Regeneration of dead cells because of susceptible neighbour cells'</text>
<text text-anchor="start" x="2683.375" y="-142.5" font-family="times" font-size="15.00" fill="#000000">0.166667</text>
<polygon fill="#000000" stroke="#000000" points="2506,-159 2506,-159 2917,-159 2917,-159 2506,-159"></polygon>
<polygon fill="none" stroke="#000000" points="2505.5,-134 2505.5,-208 2916.5,-208 2916.5,-134 2505.5,-134"></polygon>
</g>
</g>
<!-- b_0&#45;&gt;ChangeCellType_6_16506506795717299273_0_16666666667 -->
<g id="edge14" class="edge">
<title>b_0-&gt;ChangeCellType_6_16506506795717299273_0_16666666667</title>
<path fill="none" stroke="#112c5f" stroke-width="2" d="M2057.243,-276.0725C2062.3138,-266.1544 2070.1382,-254.6414 2081,-248.8 2101.3092,-237.8779 2473.2594,-244.6239 2496,-240.8 2533.1438,-234.5541 2572.6561,-223.1807 2607.5403,-211.4023"></path>
<polygon fill="#112c5f" stroke="#112c5f" stroke-width="2" points="2608.9263,-214.6272 2617.2508,-208.0734 2606.6562,-208.0055 2608.9263,-214.6272"></polygon>
</g>
<!-- b_MF_0 -->
<g id="node10" class="node">
<title>b_MF_0</title>
<g id="a_node10">
<ellipse fill="#d3d247" stroke="#000000" cx="1104" cy="-293.8" rx="34.7922" ry="18"></ellipse>
<text text-anchor="middle" x="1104" y="-289.6" font-family="Times,serif" font-size="14.00" fill="#000000">b_MF</text>
</g>
</g>
<!-- b_MF_0&#45;&gt;System_3_0_16666666667 -->
<g id="edge16" class="edge">
<title>b_MF_0-&gt;System_3_0_16666666667</title>
<path fill="none" stroke="#112c5f" stroke-width="2" d="M1118.6055,-277.0129C1126.7832,-268.1074 1137.4366,-257.2844 1148,-248.8 1174.2691,-227.701 1206.626,-207.7036 1231.8372,-193.2669"></path>
<polygon fill="#112c5f" stroke="#112c5f" stroke-width="2" points="1233.798,-196.1789 1240.7777,-188.208 1230.3507,-190.0866 1233.798,-196.1789"></polygon>
</g>
<!-- beta_0 -->
<g id="node11" class="node">
<title>beta_0</title>
<g id="a_node11">
<ellipse fill="#d3d247" stroke="#000000" cx="952" cy="-293.8" rx="27.2447" ry="18"></ellipse>
<text text-anchor="middle" x="952" y="-289.6" font-family="Times,serif" font-size="14.00" fill="#000000">beta</text>
</g>
</g>
<!-- ChangeCellType_8_11963288805388677603_0_16666666667 -->
<g id="node49" class="node">
<title>ChangeCellType_8_11963288805388677603_0_16666666667</title>
<g id="a_node49">">
<polygon fill="#fffea3" stroke="transparent" points="611.5,-208 316.5,-208 316.5,-134 611.5,-134 611.5,-208"></polygon>
<text text-anchor="start" x="413.6793" y="-190.5" font-family="times" font-size="15.00" fill="#000000">ChangeCellType</text>
<text text-anchor="start" x="320.7902999999999" y="-167.5" font-family="times" font-style="italic" font-size="15.00" fill="#000000">'Susceptible cells gets exposed to the pathogen'</text>
<text text-anchor="start" x="436.375" y="-142.5" font-family="times" font-size="15.00" fill="#000000">0.166667</text>
<polygon fill="#000000" stroke="#000000" points="317,-159 317,-159 612,-159 612,-159 317,-159"></polygon>
<polygon fill="none" stroke="#000000" points="316.5,-134 316.5,-208 611.5,-208 611.5,-134 316.5,-134"></polygon>
</g>
</g>
<!-- beta_0&#45;&gt;ChangeCellType_8_11963288805388677603_0_16666666667 -->
<g id="edge17" class="edge">
<title>beta_0-&gt;ChangeCellType_8_11963288805388677603_0_16666666667</title>
<path fill="none" stroke="#112c5f" stroke-width="2" d="M944.7415,-276.1013C939.6651,-266.1934 931.8404,-254.681 921,-248.8 891.5925,-232.8463 652.623,-248.2201 620,-240.8 593.1912,-234.7023 565.3513,-223.874 540.7393,-212.5385"></path>
<polygon fill="#112c5f" stroke="#112c5f" stroke-width="2" points="542.0119,-209.2692 531.4734,-208.178 539.0313,-215.6029 542.0119,-209.2692"></polygon>
</g>
<!-- beta_MF_0 -->
<g id="node12" class="node">
<title>beta_MF_0</title>
<g id="a_node12">
<ellipse fill="#d3d247" stroke="#000000" cx="1569" cy="-293.8" rx="45.806" ry="18"></ellipse>
<text text-anchor="middle" x="1569" y="-289.6" font-family="Times,serif" font-size="14.00" fill="#000000">beta_MF</text>
</g>
</g>
<!-- beta_MF_0&#45;&gt;System_3_0_16666666667 -->
<g id="edge18" class="edge">
<title>beta_MF_0-&gt;System_3_0_16666666667</title>
<path fill="none" stroke="#112c5f" stroke-width="2" d="M1553.4342,-276.6043C1543.2748,-266.6135 1529.1246,-254.8381 1514,-248.8 1469.299,-230.9544 1452.2754,-254.0375 1406,-240.8 1373.1443,-231.4013 1339.0741,-213.334 1313.6426,-197.9361"></path>
<polygon fill="#112c5f" stroke="#112c5f" stroke-width="2" points="1315.3722,-194.8907 1305.0237,-192.6196 1311.6972,-200.8484 1315.3722,-194.8907"></polygon>
</g>
<!-- c_0 -->
<g id="node13" class="node">
<title>c_0</title>
<g id="a_node13">
<ellipse fill="#d3d247" stroke="#000000" cx="1660" cy="-293.8" rx="27" ry="18"></ellipse>
<text text-anchor="middle" x="1660" y="-289.6" font-family="Times,serif" font-size="14.00" fill="#000000">c</text>
</g>
</g>
<!-- c_0&#45;&gt;System_3_0_16666666667 -->
<g id="edge24" class="edge">
<title>c_0-&gt;System_3_0_16666666667</title>
<path fill="none" stroke="#112c5f" stroke-width="2" d="M1651.1462,-276.534C1644.9988,-266.5168 1635.7961,-254.7382 1624,-248.8 1602.35,-237.9013 1429.4239,-247.031 1406,-240.8 1373.0876,-232.0449 1339.1412,-214.0564 1313.7818,-198.5341"></path>
<polygon fill="#112c5f" stroke="#112c5f" stroke-width="2" points="1315.5216,-195.4941 1305.1858,-193.1657 1311.8136,-201.4314 1315.5216,-195.4941"></polygon>
</g>
<!-- ChangeCellType_9_13497085915847803808_0_16666666667 -->
<g id="node58" class="node">
<title>ChangeCellType_9_13497085915847803808_0_16666666667</title>
<g id="a_node58">">
<polygon fill="#fffea3" stroke="transparent" points="1832,-208 1608,-208 1608,-134 1832,-134 1832,-208"></polygon>
<text text-anchor="start" x="1669.1793" y="-190.5" font-family="times" font-size="15.00" fill="#000000">ChangeCellType</text>
<text text-anchor="start" x="1611.9145" y="-167.5" font-family="times" font-style="italic" font-size="15.00" fill="#000000">'Antiviral cells become susceptible'</text>
<text text-anchor="start" x="1691.875" y="-142.5" font-family="times" font-size="15.00" fill="#000000">0.166667</text>
<polygon fill="#000000" stroke="#000000" points="1608,-159 1608,-159 1832,-159 1832,-159 1608,-159"></polygon>
<polygon fill="none" stroke="#000000" points="1608,-134 1608,-208 1832,-208 1832,-134 1608,-134"></polygon>
</g>
</g>
<!-- c_0&#45;&gt;ChangeCellType_9_13497085915847803808_0_16666666667 -->
<g id="edge23" class="edge">
<title>c_0-&gt;ChangeCellType_9_13497085915847803808_0_16666666667</title>
<path fill="none" stroke="#112c5f" stroke-width="2" d="M1668.4693,-276.4662C1675.9823,-261.0895 1687.3032,-237.9195 1697.422,-217.2097"></path>
<polygon fill="#112c5f" stroke="#112c5f" stroke-width="2" points="1700.5736,-218.7319 1701.819,-208.2105 1694.2842,-215.6589 1700.5736,-218.7319"></polygon>
</g>
<!-- cell_center_0 -->

<!-- cell_center_x_0 -->

<!-- cell_center_0&#45;&gt;cell_center_x_0 -->

<!-- cell_center_y_0 -->

<!-- cell_center_0&#45;&gt;cell_center_y_0 -->

<!-- NeighborhoodReporter_6_3840497515807673661_0_16666666667 -->
<g id="node29" class="node">
<title>NeighborhoodReporter_6_3840497515807673661_0_16666666667</title>
<g id="a_node29">">
<polygon fill="#fffea3" stroke="transparent" points="2784.5,-440.8 2637.5,-440.8 2637.5,-366.8 2784.5,-366.8 2784.5,-440.8"></polygon>
<text text-anchor="start" x="2641.9375" y="-423.3" font-family="times" font-size="15.00" fill="#000000">NeighborhoodReporter</text>
<text text-anchor="start" x="2693.5938" y="-400.3" font-family="times" font-style="italic" font-size="15.00" fill="#000000">'cDS'</text>
<text text-anchor="start" x="2683.375" y="-375.3" font-family="times" font-size="15.00" fill="#000000">0.166667</text>
<polygon fill="#000000" stroke="#000000" points="2638,-391.8 2638,-391.8 2785,-391.8 2785,-391.8 2638,-391.8"></polygon>
<polygon fill="none" stroke="#000000" points="2637.5,-366.8 2637.5,-440.8 2784.5,-440.8 2784.5,-366.8 2637.5,-366.8"></polygon>
</g>
</g>
<!-- cell_center_x_0&#45;&gt;NeighborhoodReporter_6_3840497515807673661_0_16666666667 -->

<!-- NeighborhoodReporter_6_16364937936973564287_0_16666666667 -->
<g id="node30" class="node">
<title>NeighborhoodReporter_6_16364937936973564287_0_16666666667</title>
<g id="a_node30">">
<polygon fill="#fffea3" stroke="transparent" points="2406.5,-440.8 2259.5,-440.8 2259.5,-366.8 2406.5,-366.8 2406.5,-440.8"></polygon>
<text text-anchor="start" x="2263.9375" y="-423.3" font-family="times" font-size="15.00" fill="#000000">NeighborhoodReporter</text>
<text text-anchor="start" x="2314.3488" y="-400.3" font-family="times" font-style="italic" font-size="15.00" fill="#000000">'cDA'</text>
<text text-anchor="start" x="2305.375" y="-375.3" font-family="times" font-size="15.00" fill="#000000">0.166667</text>
<polygon fill="#000000" stroke="#000000" points="2260,-391.8 2260,-391.8 2407,-391.8 2407,-391.8 2260,-391.8"></polygon>
<polygon fill="none" stroke="#000000" points="2259.5,-366.8 2259.5,-440.8 2406.5,-440.8 2406.5,-366.8 2259.5,-366.8"></polygon>
</g>
</g>
<!-- cell_center_x_0&#45;&gt;NeighborhoodReporter_6_16364937936973564287_0_16666666667 -->

<!-- cell_center_y_0&#45;&gt;NeighborhoodReporter_6_3840497515807673661_0_16666666667 -->

<!-- cell_center_y_0&#45;&gt;NeighborhoodReporter_6_16364937936973564287_0_16666666667 -->

<!-- cell_type_0 -->

<!-- cell_type_0&#45;&gt;NeighborhoodReporter_6_3840497515807673661_0_16666666667 -->

<!-- cell_type_0&#45;&gt;NeighborhoodReporter_6_16364937936973564287_0_16666666667 -->

<!-- NeighborhoodReporter_6_16835634623245943456_0_16666666667 -->
<g id="node31" class="node">
<title>NeighborhoodReporter_6_16835634623245943456_0_16666666667</title>
<g id="a_node31">">
<polygon fill="#fffea3" stroke="transparent" points="2241.5,-440.8 2094.5,-440.8 2094.5,-366.8 2241.5,-366.8 2241.5,-440.8"></polygon>
<text text-anchor="start" x="2098.9375" y="-423.3" font-family="times" font-size="15.00" fill="#000000">NeighborhoodReporter</text>
<text text-anchor="start" x="2151.8388" y="-400.3" font-family="times" font-style="italic" font-size="15.00" fill="#000000">'cSS'</text>
<text text-anchor="start" x="2140.375" y="-375.3" font-family="times" font-size="15.00" fill="#000000">0.166667</text>
<polygon fill="#000000" stroke="#000000" points="2095,-391.8 2095,-391.8 2242,-391.8 2242,-391.8 2095,-391.8"></polygon>
<polygon fill="none" stroke="#000000" points="2094.5,-366.8 2094.5,-440.8 2241.5,-440.8 2241.5,-366.8 2094.5,-366.8"></polygon>
</g>
</g>
<!-- cell_type_0&#45;&gt;NeighborhoodReporter_6_16835634623245943456_0_16666666667 -->

<!-- NeighborhoodReporter_8_281700879518160917_0_16666666667 -->
<g id="node43" class="node">
<title>NeighborhoodReporter_8_281700879518160917_0_16666666667</title>
<g id="a_node43">">
<polygon fill="#fffea3" stroke="transparent" points="743.5,-440.8 596.5,-440.8 596.5,-366.8 743.5,-366.8 743.5,-440.8"></polygon>
<text text-anchor="start" x="600.9375" y="-423.3" font-family="times" font-size="15.00" fill="#000000">NeighborhoodReporter</text>
<text text-anchor="start" x="655.5113000000001" y="-400.3" font-family="times" font-style="italic" font-size="15.00" fill="#000000">'cSI'</text>
<text text-anchor="start" x="642.375" y="-375.3" font-family="times" font-size="15.00" fill="#000000">0.166667</text>
<polygon fill="#000000" stroke="#000000" points="597,-391.8 597,-391.8 744,-391.8 744,-391.8 597,-391.8"></polygon>
<polygon fill="none" stroke="#000000" points="596.5,-366.8 596.5,-440.8 743.5,-440.8 743.5,-366.8 596.5,-366.8"></polygon>
</g>
</g>
<!-- cell_type_0&#45;&gt;NeighborhoodReporter_8_281700879518160917_0_16666666667 -->

<!-- NeighborhoodReporter_8_12691512747678031863_0_16666666667 -->
<g id="node44" class="node">
<title>NeighborhoodReporter_8_12691512747678031863_0_16666666667</title>
<g id="a_node44">">
<polygon fill="#fffea3" stroke="transparent" points="908.5,-440.8 761.5,-440.8 761.5,-366.8 908.5,-366.8 908.5,-440.8"></polygon>
<text text-anchor="start" x="765.9375" y="-423.3" font-family="times" font-size="15.00" fill="#000000">NeighborhoodReporter</text>
<text text-anchor="start" x="805.1003" y="-400.3" font-family="times" font-style="italic" font-size="15.00" fill="#000000">'cSE_var'</text>
<text text-anchor="start" x="807.375" y="-375.3" font-family="times" font-size="15.00" fill="#000000">0.166667</text>
<polygon fill="#000000" stroke="#000000" points="762,-391.8 762,-391.8 909,-391.8 909,-391.8 762,-391.8"></polygon>
<polygon fill="none" stroke="#000000" points="761.5,-366.8 761.5,-440.8 908.5,-440.8 908.5,-366.8 761.5,-366.8"></polygon>
</g>
</g>
<!-- cell_type_0&#45;&gt;NeighborhoodReporter_8_12691512747678031863_0_16666666667 -->

<!-- NeighborhoodReporter_8_16835634623245943456_0_16666666667 -->
<g id="node45" class="node">
<title>NeighborhoodReporter_8_16835634623245943456_0_16666666667</title>
<g id="a_node45">">
<polygon fill="#fffea3" stroke="transparent" points="578.5,-440.8 431.5,-440.8 431.5,-366.8 578.5,-366.8 578.5,-440.8"></polygon>
<text text-anchor="start" x="435.9375" y="-423.3" font-family="times" font-size="15.00" fill="#000000">NeighborhoodReporter</text>
<text text-anchor="start" x="488.8388" y="-400.3" font-family="times" font-style="italic" font-size="15.00" fill="#000000">'cSS'</text>
<text text-anchor="start" x="477.375" y="-375.3" font-family="times" font-size="15.00" fill="#000000">0.166667</text>
<polygon fill="#000000" stroke="#000000" points="432,-391.8 432,-391.8 579,-391.8 579,-391.8 432,-391.8"></polygon>
<polygon fill="none" stroke="#000000" points="431.5,-366.8 431.5,-440.8 578.5,-440.8 578.5,-366.8 431.5,-366.8"></polygon>
</g>
</g>
<!-- cell_type_0&#45;&gt;NeighborhoodReporter_8_16835634623245943456_0_16666666667 -->

<!-- celltype_antiviral_id_0 -->

<!-- celltype_antiviral_id_0&#45;&gt;NeighborhoodReporter_6_16364937936973564287_0_16666666667 -->

<!-- celltype_antiviral_size_0 -->
<g id="node14" class="node">
<title>celltype_antiviral_size_0</title>
<g id="a_node14">
<ellipse fill="#d3d247" stroke="#000000" cx="1756" cy="-403.8" rx="93.7514" ry="18"></ellipse>
<text text-anchor="middle" x="1756" y="-399.6" font-family="Times,serif" font-size="14.00" fill="#000000">celltype.antiviral.size</text>
</g>
</g>
<!-- celltype_antiviral_size_0&#45;&gt;N_SAE_0 -->
<g id="edge25" class="edge">
<title>celltype_antiviral_size_0-&gt;N_SAE_0</title>
<path fill="none" stroke="#112c5f" stroke-width="2" d="M1797.0895,-387.5444C1829.6777,-374.0121 1875.9166,-353.3672 1914,-330.8 1921.3161,-326.4647 1928.8624,-321.2954 1935.8051,-316.2154"></path>
<polygon fill="#112c5f" stroke="#112c5f" stroke-width="2" points="1938.321,-318.703 1944.2136,-309.898 1934.1162,-313.1065 1938.321,-318.703"></polygon>
</g>
<!-- celltype_exposed_id_0 -->

<!-- celltype_exposed_id_0&#45;&gt;NeighborhoodReporter_8_12691512747678031863_0_16666666667 -->

<!-- celltype_exposed_size_0 -->
<g id="node15" class="node">
<title>celltype_exposed_size_0</title>
<g id="a_node15">
<ellipse fill="#d3d247" stroke="#000000" cx="1551" cy="-403.8" rx="93.1774" ry="18"></ellipse>
<text text-anchor="middle" x="1551" y="-399.6" font-family="Times,serif" font-size="14.00" fill="#000000">celltype.exposed.size</text>
</g>
</g>
<!-- celltype_exposed_size_0&#45;&gt;N_SAE_0 -->
<g id="edge26" class="edge">
<title>celltype_exposed_size_0-&gt;N_SAE_0</title>
<path fill="none" stroke="#112c5f" stroke-width="2" d="M1590.1192,-387.4144C1608.8566,-380.1366 1631.7881,-372.0477 1653,-366.8 1766.6713,-338.6783 1805.5647,-375.0017 1914,-330.8 1922.4812,-327.3428 1930.8307,-322.1152 1938.2049,-316.6698"></path>
<polygon fill="#112c5f" stroke="#112c5f" stroke-width="2" points="1940.6551,-319.1962 1946.363,-310.2703 1936.3347,-313.6885 1940.6551,-319.1962"></polygon>
</g>
<!-- celltype_infectious_id_0 -->

<!-- celltype_infectious_id_0&#45;&gt;NeighborhoodReporter_8_281700879518160917_0_16666666667 -->

<!-- celltype_infectious_size_0 -->
<g id="node16" class="node">
<title>celltype_infectious_size_0</title>
<g id="a_node16">
<ellipse fill="#d3d247" stroke="#000000" cx="1805" cy="-293.8" rx="99.552" ry="18"></ellipse>
<text text-anchor="middle" x="1805" y="-289.6" font-family="Times,serif" font-size="14.00" fill="#000000">celltype.infectious.size</text>
</g>
</g>
<!-- celltype_infectious_size_0&#45;&gt;Logger_0_10 -->
<g id="edge27" class="edge">
<title>celltype_infectious_size_0-&gt;Logger_0_10</title>
<path fill="none" stroke="#112c5f" stroke-width="2" d="M1823.7577,-275.9438C1843.8958,-256.7736 1876.2906,-225.9358 1900.7642,-202.6384"></path>
<polygon fill="#112c5f" stroke="#112c5f" stroke-width="2" points="1903.253,-205.1015 1908.0828,-195.6716 1898.4266,-200.0314 1903.253,-205.1015"></polygon>
</g>
<!-- celltype_susceptible_id_0 -->

<!-- celltype_susceptible_id_0&#45;&gt;NeighborhoodReporter_6_3840497515807673661_0_16666666667 -->

<!-- celltype_susceptible_id_0&#45;&gt;NeighborhoodReporter_6_16835634623245943456_0_16666666667 -->

<!-- celltype_susceptible_id_0&#45;&gt;NeighborhoodReporter_8_16835634623245943456_0_16666666667 -->

<!-- celltype_susceptible_size_0 -->
<g id="node17" class="node">
<title>celltype_susceptible_size_0</title>
<g id="a_node17">
<ellipse fill="#d3d247" stroke="#000000" cx="1972" cy="-403.8" rx="104.2072" ry="18"></ellipse>
<text text-anchor="middle" x="1972" y="-399.6" font-family="Times,serif" font-size="14.00" fill="#000000">celltype.susceptible.size</text>
</g>
</g>
<!-- celltype_susceptible_size_0&#45;&gt;N_SAE_0 -->
<g id="edge28" class="edge">
<title>celltype_susceptible_size_0-&gt;N_SAE_0</title>
<path fill="none" stroke="#112c5f" stroke-width="2" d="M1970.679,-385.6357C1969.4225,-368.3595 1967.5134,-342.109 1966.0576,-322.0917"></path>
<polygon fill="#112c5f" stroke="#112c5f" stroke-width="2" points="1969.5392,-321.711 1965.323,-311.9912 1962.5577,-322.2188 1969.5392,-321.711"></polygon>
</g>
<!-- dt_0 -->

<!-- ChangeCellType_5_752489709083243527_0_16666666667 -->
<g id="node23" class="node">
<title>ChangeCellType_5_752489709083243527_0_16666666667</title>
<g id="a_node23">">
<polygon fill="#fffea3" stroke="transparent" points="3606.5,-330.8 3397.5,-330.8 3397.5,-256.8 3606.5,-256.8 3606.5,-330.8"></polygon>
<text text-anchor="start" x="3451.6793" y="-313.3" font-family="times" font-size="15.00" fill="#000000">ChangeCellType</text>
<text text-anchor="start" x="3401.7105" y="-290.3" font-family="times" font-style="italic" font-size="15.00" fill="#000000">'Natural death of infectious cells'</text>
<text text-anchor="start" x="3474.375" y="-265.3" font-family="times" font-size="15.00" fill="#000000">0.166667</text>
<polygon fill="#000000" stroke="#000000" points="3398,-281.8 3398,-281.8 3607,-281.8 3607,-281.8 3398,-281.8"></polygon>
<polygon fill="none" stroke="#000000" points="3397.5,-256.8 3397.5,-330.8 3606.5,-330.8 3606.5,-256.8 3397.5,-256.8"></polygon>
</g>
</g>
<!-- dt_0&#45;&gt;ChangeCellType_5_752489709083243527_0_16666666667 -->

<!-- ChangeCellType_5_7734512074392980975_0_16666666667 -->
<g id="node24" class="node">
<title>ChangeCellType_5_7734512074392980975_0_16666666667</title>
<g id="a_node24">">
<polygon fill="#fffea3" stroke="transparent" points="3861,-330.8 3625,-330.8 3625,-256.8 3861,-256.8 3861,-330.8"></polygon>
<text text-anchor="start" x="3692.1793" y="-313.3" font-family="times" font-size="15.00" fill="#000000">ChangeCellType</text>
<text text-anchor="start" x="3628.8688" y="-290.3" font-family="times" font-style="italic" font-size="15.00" fill="#000000">'Death of infectious cells due to lysis'</text>
<text text-anchor="start" x="3714.875" y="-265.3" font-family="times" font-size="15.00" fill="#000000">0.166667</text>
<polygon fill="#000000" stroke="#000000" points="3625,-281.8 3625,-281.8 3861,-281.8 3861,-281.8 3625,-281.8"></polygon>
<polygon fill="none" stroke="#000000" points="3625,-256.8 3625,-330.8 3861,-330.8 3861,-256.8 3625,-256.8"></polygon>
</g>
</g>
<!-- dt_0&#45;&gt;ChangeCellType_5_7734512074392980975_0_16666666667 -->

<!-- dt_0&#45;&gt;NeighborhoodReporter_6_3840497515807673661_0_16666666667 -->

<!-- dt_0&#45;&gt;NeighborhoodReporter_6_16364937936973564287_0_16666666667 -->

<!-- dt_0&#45;&gt;NeighborhoodReporter_6_16835634623245943456_0_16666666667 -->

<!-- dt_0&#45;&gt;ChangeCellType_6_504437279156551550_0_16666666667 -->

<!-- dt_0&#45;&gt;ChangeCellType_6_16506506795717299273_0_16666666667 -->

<!-- ChangeCellType_7_5845518840858594733_0_16666666667 -->
<g id="node37" class="node">
<title>ChangeCellType_7_5845518840858594733_0_16666666667</title>
<g id="a_node37">">
<polygon fill="#fffea3" stroke="transparent" points="3372.5,-330.8 3173.5,-330.8 3173.5,-256.8 3372.5,-256.8 3372.5,-330.8"></polygon>
<text text-anchor="start" x="3222.6793" y="-313.3" font-family="times" font-size="15.00" fill="#000000">ChangeCellType</text>
<text text-anchor="start" x="3177.71" y="-290.3" font-family="times" font-style="italic" font-size="15.00" fill="#000000">'Natural death of exposed cells'</text>
<text text-anchor="start" x="3245.375" y="-265.3" font-family="times" font-size="15.00" fill="#000000">0.166667</text>
<polygon fill="#000000" stroke="#000000" points="3174,-281.8 3174,-281.8 3373,-281.8 3373,-281.8 3174,-281.8"></polygon>
<polygon fill="none" stroke="#000000" points="3173.5,-256.8 3173.5,-330.8 3372.5,-330.8 3372.5,-256.8 3173.5,-256.8"></polygon>
</g>
</g>
<!-- dt_0&#45;&gt;ChangeCellType_7_5845518840858594733_0_16666666667 -->

<!-- ChangeCellType_7_8735360406832627035_0_16666666667 -->
<g id="node38" class="node">
<title>ChangeCellType_7_8735360406832627035_0_16666666667</title>
<g id="a_node38">">
<polygon fill="#fffea3" stroke="transparent" points="3155,-330.8 2941,-330.8 2941,-256.8 3155,-256.8 3155,-330.8"></polygon>
<text text-anchor="start" x="2997.1793" y="-313.3" font-family="times" font-size="15.00" fill="#000000">ChangeCellType</text>
<text text-anchor="start" x="2944.9133" y="-290.3" font-family="times" font-style="italic" font-size="15.00" fill="#000000">'Exposed cells become infectious'</text>
<text text-anchor="start" x="3019.875" y="-265.3" font-family="times" font-size="15.00" fill="#000000">0.166667</text>
<polygon fill="#000000" stroke="#000000" points="2941,-281.8 2941,-281.8 3155,-281.8 3155,-281.8 2941,-281.8"></polygon>
<polygon fill="none" stroke="#000000" points="2941,-256.8 2941,-330.8 3155,-330.8 3155,-256.8 2941,-256.8"></polygon>
</g>
</g>
<!-- dt_0&#45;&gt;ChangeCellType_7_8735360406832627035_0_16666666667 -->

<!-- dt_0&#45;&gt;NeighborhoodReporter_8_281700879518160917_0_16666666667 -->

<!-- dt_0&#45;&gt;NeighborhoodReporter_8_12691512747678031863_0_16666666667 -->

<!-- dt_0&#45;&gt;NeighborhoodReporter_8_16835634623245943456_0_16666666667 -->

<!-- ChangeCellType_8_4386970565050791103_0_16666666667 -->
<g id="node46" class="node">
<title>ChangeCellType_8_4386970565050791103_0_16666666667</title>
<g id="a_node46">">
<polygon fill="#fffea3" stroke="transparent" points="561.5,-330.8 344.5,-330.8 344.5,-256.8 561.5,-256.8 561.5,-330.8"></polygon>
<text text-anchor="start" x="402.6793" y="-313.3" font-family="times" font-size="15.00" fill="#000000">ChangeCellType</text>
<text text-anchor="start" x="348.96129999999994" y="-290.3" font-family="times" font-style="italic" font-size="15.00" fill="#000000">'Natural death of susceptible cells'</text>
<text text-anchor="start" x="425.375" y="-265.3" font-family="times" font-size="15.00" fill="#000000">0.166667</text>
<polygon fill="#000000" stroke="#000000" points="345,-281.8 345,-281.8 562,-281.8 562,-281.8 345,-281.8"></polygon>
<polygon fill="none" stroke="#000000" points="344.5,-256.8 344.5,-330.8 561.5,-330.8 561.5,-256.8 344.5,-256.8"></polygon>
</g>
</g>
<!-- dt_0&#45;&gt;ChangeCellType_8_4386970565050791103_0_16666666667 -->

<!-- ChangeCellType_8_13379088868927538511_0_16666666667 -->
<g id="node47" class="node">
<title>ChangeCellType_8_13379088868927538511_0_16666666667</title>
<g id="a_node47">">
<polygon fill="#fffea3" stroke="transparent" points="908.5,-208 629.5,-208 629.5,-134 908.5,-134 908.5,-208"></polygon>
<text text-anchor="start" x="718.6793" y="-190.5" font-family="times" font-size="15.00" fill="#000000">ChangeCellType</text>
<text text-anchor="start" x="633.7035" y="-167.5" font-family="times" font-style="italic" font-size="15.00" fill="#000000">'Susceptible cells acquire induced immunity'</text>
<text text-anchor="start" x="741.375" y="-142.5" font-family="times" font-size="15.00" fill="#000000">0.166667</text>
<polygon fill="#000000" stroke="#000000" points="630,-159 630,-159 909,-159 909,-159 630,-159"></polygon>
<polygon fill="none" stroke="#000000" points="629.5,-134 629.5,-208 908.5,-208 908.5,-134 629.5,-134"></polygon>
</g>
</g>
<!-- dt_0&#45;&gt;ChangeCellType_8_13379088868927538511_0_16666666667 -->

<!-- ChangeCellType_8_12534182324976402541_0_16666666667 -->
<g id="node48" class="node">
<title>ChangeCellType_8_12534182324976402541_0_16666666667</title>
<g id="a_node48">">
<polygon fill="#fffea3" stroke="transparent" points="326,-330.8 24,-330.8 24,-256.8 326,-256.8 326,-330.8"></polygon>
<text text-anchor="start" x="124.17930000000001" y="-313.3" font-family="times" font-size="15.00" fill="#000000">ChangeCellType</text>
<text text-anchor="start" x="27.949800000000096" y="-290.3" font-family="times" font-style="italic" font-size="15.00" fill="#000000">'Susceptible cells acquire constitutive immunity'</text>
<text text-anchor="start" x="146.875" y="-265.3" font-family="times" font-size="15.00" fill="#000000">0.166667</text>
<polygon fill="#000000" stroke="#000000" points="24,-281.8 24,-281.8 326,-281.8 326,-281.8 24,-281.8"></polygon>
<polygon fill="none" stroke="#000000" points="24,-256.8 24,-330.8 326,-330.8 326,-256.8 24,-256.8"></polygon>
</g>
</g>
<!-- dt_0&#45;&gt;ChangeCellType_8_12534182324976402541_0_16666666667 -->

<!-- dt_0&#45;&gt;ChangeCellType_8_11963288805388677603_0_16666666667 -->

<!-- ChangeCellType_9_1012917135305496873_0_16666666667 -->
<g id="node57" class="node">
<title>ChangeCellType_9_1012917135305496873_0_16666666667</title>
<g id="a_node57">">
<polygon fill="#fffea3" stroke="transparent" points="1636,-98 1436,-98 1436,-24 1636,-24 1636,-98"></polygon>
<text text-anchor="start" x="1485.1793" y="-80.5" font-family="times" font-size="15.00" fill="#000000">ChangeCellType</text>
<text text-anchor="start" x="1439.793" y="-57.5" font-family="times" font-style="italic" font-size="15.00" fill="#000000">'Natural death of antiviral cells'</text>
<text text-anchor="start" x="1507.875" y="-32.5" font-family="times" font-size="15.00" fill="#000000">0.166667</text>
<polygon fill="#000000" stroke="#000000" points="1436,-49 1436,-49 1636,-49 1636,-49 1436,-49"></polygon>
<polygon fill="none" stroke="#000000" points="1436,-24 1436,-98 1636,-98 1636,-24 1436,-24"></polygon>
</g>
</g>
<!-- dt_0&#45;&gt;ChangeCellType_9_1012917135305496873_0_16666666667 -->

<!-- dt_0&#45;&gt;ChangeCellType_9_13497085915847803808_0_16666666667 -->

<!-- epsilon_0 -->
<g id="node18" class="node">
<title>epsilon_0</title>
<g id="a_node18">
<ellipse fill="#d3d247" stroke="#000000" cx="1466" cy="-293.8" rx="38.8632" ry="18"></ellipse>
<text text-anchor="middle" x="1466" y="-289.6" font-family="Times,serif" font-size="14.00" fill="#000000">epsilon</text>
</g>
</g>
<!-- epsilon_0&#45;&gt;System_3_0_16666666667 -->
<g id="edge29" class="edge">
<title>epsilon_0-&gt;System_3_0_16666666667</title>
<path fill="none" stroke="#112c5f" stroke-width="2" d="M1450.4815,-277.2676C1441.501,-268.2279 1429.6904,-257.1955 1418,-248.8 1400.0007,-235.8737 1350.5669,-210.0429 1314.4075,-191.695"></path>
<polygon fill="#112c5f" stroke="#112c5f" stroke-width="2" points="1315.567,-188.3593 1305.0636,-186.97 1312.4081,-194.6061 1315.567,-188.3593"></polygon>
</g>
<!-- mu_MF_0 -->
<g id="node19" class="node">
<title>mu_MF_0</title>
<g id="a_node19">
<ellipse fill="#d3d247" stroke="#000000" cx="1367" cy="-293.8" rx="42.3165" ry="18"></ellipse>
<text text-anchor="middle" x="1367" y="-289.6" font-family="Times,serif" font-size="14.00" fill="#000000">mu_MF</text>
</g>
</g>
<!-- mu_MF_0&#45;&gt;System_3_0_16666666667 -->
<g id="edge30" class="edge">
<title>mu_MF_0-&gt;System_3_0_16666666667</title>
<path fill="none" stroke="#112c5f" stroke-width="2" d="M1353.7315,-276.4662C1339.4886,-257.8595 1316.5107,-227.8417 1298.7043,-204.5797"></path>
<polygon fill="#112c5f" stroke="#112c5f" stroke-width="2" points="1301.2614,-202.162 1292.4038,-196.3488 1295.703,-206.4169 1301.2614,-202.162"></polygon>
</g>
<!-- rho_0 -->
<g id="node20" class="node">
<title>rho_0</title>
<g id="a_node20">
<ellipse fill="#d3d247" stroke="#000000" cx="1024" cy="-293.8" rx="27" ry="18"></ellipse>
<text text-anchor="middle" x="1024" y="-289.6" font-family="Times,serif" font-size="14.00" fill="#000000">rho</text>
</g>
</g>
<!-- rho_0&#45;&gt;System_3_0_16666666667 -->
<g id="edge32" class="edge">
<title>rho_0-&gt;System_3_0_16666666667</title>
<path fill="none" stroke="#112c5f" stroke-width="2" d="M1034.2005,-276.9051C1040.6006,-267.5235 1049.6006,-256.2735 1060,-248.8 1112.6075,-210.994 1185.5913,-189.6452 1231.0195,-179.2173"></path>
<polygon fill="#112c5f" stroke="#112c5f" stroke-width="2" points="1231.8306,-182.6225 1240.8331,-177.0363 1230.312,-175.7892 1231.8306,-182.6225"></polygon>
</g>
<!-- rho_0&#45;&gt;ChangeCellType_8_13379088868927538511_0_16666666667 -->
<g id="edge31" class="edge">
<title>rho_0-&gt;ChangeCellType_8_13379088868927538511_0_16666666667</title>
<path fill="none" stroke="#112c5f" stroke-width="2" d="M1013.8243,-276.8705C1007.4324,-267.4773 998.4324,-256.2273 988,-248.8 966.8692,-233.756 942.5406,-221.3615 917.9529,-211.2345"></path>
<polygon fill="#112c5f" stroke="#112c5f" stroke-width="2" points="919.1075,-207.9268 908.5228,-207.4635 916.5083,-214.4264 919.1075,-207.9268"></polygon>
</g>
<!-- sigma_0 -->
<g id="node21" class="node">
<title>sigma_0</title>
<g id="a_node21">
<ellipse fill="#d3d247" stroke="#000000" cx="1273" cy="-293.8" rx="34.2065" ry="18"></ellipse>
<text text-anchor="middle" x="1273" y="-289.6" font-family="Times,serif" font-size="14.00" fill="#000000">sigma</text>
</g>
</g>
<!-- sigma_0&#45;&gt;System_3_0_16666666667 -->
<g id="edge33" class="edge">
<title>sigma_0-&gt;System_3_0_16666666667</title>
<path fill="none" stroke="#112c5f" stroke-width="2" d="M1273,-275.6804C1273,-257.4804 1273,-228.9576 1273,-206.2787"></path>
<polygon fill="#112c5f" stroke="#112c5f" stroke-width="2" points="1276.5001,-206.0077 1273,-196.0077 1269.5001,-206.0077 1276.5001,-206.0077"></polygon>
</g>
<!-- time_0 -->

<!-- time_0&#45;&gt;ChangeCellType_5_752489709083243527_0_16666666667 -->

<!-- time_0&#45;&gt;ChangeCellType_5_7734512074392980975_0_16666666667 -->

<!-- time_0&#45;&gt;ChangeCellType_7_5845518840858594733_0_16666666667 -->

<g id="edge8" class="edge">
<title>System_3_0_16666666667-&gt;P_A_0</title>
<path fill="none" stroke="#8f100d" stroke-width="3" d="M1262.6761,-145.7638C1255.6482,-128.5844 1246.3522,-105.8609 1239.1543,-88.2662"></path>
<polygon fill="#8f100d" stroke="#8f100d" stroke-width="3" points="1242.2176,-86.5103 1235.1918,-78.58 1235.7388,-89.1607 1242.2176,-86.5103"></polygon>
</g><g id="edge9" class="edge">
<title>System_3_0_16666666667-&gt;P_D_0</title>
<path fill="none" stroke="#8f100d" stroke-width="3" d="M1279.6532,-145.7638C1284.1543,-128.6904 1290.0991,-106.1412 1294.7256,-88.5926"></path>
<polygon fill="#8f100d" stroke="#8f100d" stroke-width="3" points="1298.1114,-89.4791 1297.2764,-78.9173 1291.3427,-87.6946 1298.1114,-89.4791"></polygon>
</g><g id="edge10" class="edge">
<title>System_3_0_16666666667-&gt;P_E_0</title>
<path fill="none" stroke="#8f100d" stroke-width="3" d="M1296.4009,-145.7638C1313.5384,-127.2821 1336.6258,-102.3839 1353.3408,-84.3579"></path>
<polygon fill="#8f100d" stroke="#8f100d" stroke-width="3" points="1356.295,-86.3196 1360.528,-76.6071 1351.1621,-81.56 1356.295,-86.3196"></polygon>
</g><g id="edge11" class="edge">
<title>System_3_0_16666666667-&gt;P_I_0</title>
<path fill="none" stroke="#8f100d" stroke-width="3" d="M1240.8219,-159.6364C1208.3512,-147.3059 1157.6257,-125.6263 1119,-98 1113.5463,-94.0994 1108.2057,-89.3187 1103.3778,-84.5054"></path>
<polygon fill="#8f100d" stroke="#8f100d" stroke-width="3" points="1105.6997,-81.8682 1096.2706,-77.0367 1100.6287,-86.6937 1105.6997,-81.8682"></polygon>
</g><g id="edge12" class="edge">
<title>System_3_0_16666666667-&gt;P_S_0</title>
<path fill="none" stroke="#8f100d" stroke-width="3" d="M1243.7004,-145.8208C1227.8506,-131.9756 1208.0782,-114.3379 1191,-98 1186.24,-93.4463 1181.2457,-88.4575 1176.5441,-83.6587"></path>
<polygon fill="#8f100d" stroke="#8f100d" stroke-width="3" points="1178.9459,-81.1079 1169.4724,-76.3641 1173.92,-85.9803 1178.9459,-81.1079"></polygon>
</g><g id="node25" class="node">
<title>t_birth_5</title>
<g id="a_node25">
<ellipse fill="#d3d247" stroke="#000000" cx="3566" cy="-403.8" rx="36.5767" ry="18"></ellipse>
<text text-anchor="middle" x="3566" y="-399.6" font-family="Times,serif" font-size="14.00" fill="#000000">t_birth</text>
</g>
</g><g id="edge34" class="edge">
<title>t_birth_5-&gt;ChangeCellType_5_752489709083243527_0_16666666667</title>
<path fill="none" stroke="#112c5f" stroke-width="2" d="M3555.7173,-386.1266C3548.4428,-373.6235 3538.3332,-356.2477 3528.8447,-339.9393"></path>
<polygon fill="#112c5f" stroke="#112c5f" stroke-width="2" points="3531.7133,-337.91 3523.6591,-331.0266 3525.6629,-341.4302 3531.7133,-337.91"></polygon>
</g><g id="node26" class="node">
<title>t_start_5</title>
<g id="a_node26">
<ellipse fill="#d3d247" stroke="#000000" cx="3774" cy="-403.8" rx="35.347" ry="18"></ellipse>
<text text-anchor="middle" x="3774" y="-399.6" font-family="Times,serif" font-size="14.00" fill="#000000">t_start</text>
</g>
</g><g id="edge38" class="edge">
<title>t_start_5-&gt;ChangeCellType_5_7734512074392980975_0_16666666667</title>
<path fill="none" stroke="#112c5f" stroke-width="2" d="M3768.881,-385.6357C3765.4346,-373.4066 3760.721,-356.6809 3756.2602,-340.8523"></path>
<polygon fill="#112c5f" stroke="#112c5f" stroke-width="2" points="3759.6104,-339.8366 3753.529,-331.1609 3752.8728,-341.7354 3759.6104,-339.8366"></polygon>
</g><g id="node27" class="node">
<title>tau_alpha_5</title>
<g id="a_node27">
<ellipse fill="#d3d247" stroke="#000000" cx="3672" cy="-403.8" rx="48.6559" ry="18"></ellipse>
<text text-anchor="middle" x="3672" y="-399.6" font-family="Times,serif" font-size="14.00" fill="#000000">tau_alpha</text>
</g>
</g><g id="edge41" class="edge">
<title>tau_alpha_5-&gt;ChangeCellType_5_7734512074392980975_0_16666666667</title>
<path fill="none" stroke="#112c5f" stroke-width="2" d="M3683.4074,-386.1266C3691.5523,-373.5078 3702.9008,-355.9255 3713.5114,-339.4865"></path>
<polygon fill="#112c5f" stroke="#112c5f" stroke-width="2" points="3716.4895,-341.3265 3718.9719,-331.0266 3710.6082,-337.5304 3716.4895,-341.3265"></polygon>
</g><g id="node28" class="node">
<title>tau_mu_5</title>
<g id="a_node28">
<ellipse fill="#d3d247" stroke="#000000" cx="3471" cy="-403.8" rx="40.0089" ry="18"></ellipse>
<text text-anchor="middle" x="3471" y="-399.6" font-family="Times,serif" font-size="14.00" fill="#000000">tau_mu</text>
</g>
</g><g id="edge43" class="edge">
<title>tau_mu_5-&gt;ChangeCellType_5_752489709083243527_0_16666666667</title>
<path fill="none" stroke="#112c5f" stroke-width="2" d="M3476.119,-385.6357C3479.5654,-373.4066 3484.279,-356.6809 3488.7398,-340.8523"></path>
<polygon fill="#112c5f" stroke="#112c5f" stroke-width="2" points="3492.1272,-341.7354 3491.471,-331.1609 3485.3896,-339.8366 3492.1272,-341.7354"></polygon>
</g><g id="node35" class="node">
<title>cDS_6</title>
<g id="a_node35">
<ellipse fill="#d3d247" stroke="#000000" cx="2711" cy="-293.8" rx="27.8267" ry="18"></ellipse>
<text text-anchor="middle" x="2711" y="-289.6" font-family="Times,serif" font-size="14.00" fill="#000000">cDS</text>
</g>
</g><g id="edge4" class="edge">
<title>NeighborhoodReporter_6_3840497515807673661_0_16666666667-&gt;cDS_6</title>
<path fill="none" stroke="#8f100d" stroke-width="3" d="M2711,-366.559C2711,-352.0016 2711,-335.5847 2711,-322.0342"></path>
<polygon fill="#8f100d" stroke="#8f100d" stroke-width="3" points="2714.5001,-321.8718 2711,-311.8719 2707.5001,-321.8719 2714.5001,-321.8718"></polygon>
</g><g id="node34" class="node">
<title>cDA_6</title>
<g id="a_node34">
<ellipse fill="#d3d247" stroke="#000000" cx="2311" cy="-293.8" rx="29.0337" ry="18"></ellipse>
<text text-anchor="middle" x="2311" y="-289.6" font-family="Times,serif" font-size="14.00" fill="#000000">cDA</text>
</g>
</g><g id="edge2" class="edge">
<title>NeighborhoodReporter_6_16364937936973564287_0_16666666667-&gt;cDA_6</title>
<path fill="none" stroke="#8f100d" stroke-width="3" d="M2325.5518,-366.559C2322.6403,-352.0016 2319.3569,-335.5847 2316.6468,-322.0342"></path>
<polygon fill="#8f100d" stroke="#8f100d" stroke-width="3" points="2320.0076,-320.9912 2314.6144,-311.8719 2313.1436,-322.3641 2320.0076,-320.9912"></polygon>
</g><g id="node36" class="node">
<title>cSS_6</title>
<g id="a_node36">
<ellipse fill="#d3d247" stroke="#000000" cx="2168" cy="-293.8" rx="27" ry="18"></ellipse>
<text text-anchor="middle" x="2168" y="-289.6" font-family="Times,serif" font-size="14.00" fill="#000000">cSS</text>
</g>
</g><g id="edge3" class="edge">
<title>NeighborhoodReporter_6_16835634623245943456_0_16666666667-&gt;cSS_6</title>
<path fill="none" stroke="#8f100d" stroke-width="3" d="M2168,-366.559C2168,-352.0016 2168,-335.5847 2168,-322.0342"></path>
<polygon fill="#8f100d" stroke="#8f100d" stroke-width="3" points="2171.5001,-321.8718 2168,-311.8719 2164.5001,-321.8719 2171.5001,-321.8718"></polygon>
</g><g id="edge19" class="edge">
<title>cDA_6-&gt;ChangeCellType_6_504437279156551550_0_16666666667</title>
<path fill="none" stroke="#112c5f" stroke-width="2" d="M2307.9014,-275.6804C2305.3149,-260.5558 2301.5094,-238.3025 2298.0714,-218.1983"></path>
<polygon fill="#112c5f" stroke="#112c5f" stroke-width="2" points="2301.5036,-217.5042 2296.3679,-208.2373 2294.6037,-218.6842 2301.5036,-217.5042"></polygon>
</g><g id="edge20" class="edge">
<title>cDS_6-&gt;ChangeCellType_6_16506506795717299273_0_16666666667</title>
<path fill="none" stroke="#112c5f" stroke-width="2" d="M2711,-275.6804C2711,-260.6249 2711,-238.5055 2711,-218.4738"></path>
<polygon fill="#112c5f" stroke="#112c5f" stroke-width="2" points="2714.5001,-218.2372 2711,-208.2373 2707.5001,-218.2373 2714.5001,-218.2372"></polygon>
</g><g id="node39" class="node">
<title>t_birth_7</title>
<g id="a_node39">
<ellipse fill="#d3d247" stroke="#000000" cx="3323" cy="-403.8" rx="36.5767" ry="18"></ellipse>
<text text-anchor="middle" x="3323" y="-399.6" font-family="Times,serif" font-size="14.00" fill="#000000">t_birth</text>
</g>
</g><g id="edge35" class="edge">
<title>t_birth_7-&gt;ChangeCellType_7_5845518840858594733_0_16666666667</title>
<path fill="none" stroke="#112c5f" stroke-width="2" d="M3314.9666,-386.1266C3309.336,-373.7393 3301.5314,-356.569 3294.1784,-340.3926"></path>
<polygon fill="#112c5f" stroke="#112c5f" stroke-width="2" points="3297.2456,-338.6819 3289.9212,-331.0266 3290.873,-341.5786 3297.2456,-338.6819"></polygon>
</g><g id="node40" class="node">
<title>t_start_7</title>
<g id="a_node40">
<ellipse fill="#d3d247" stroke="#000000" cx="3122" cy="-403.8" rx="35.347" ry="18"></ellipse>
<text text-anchor="middle" x="3122" y="-399.6" font-family="Times,serif" font-size="14.00" fill="#000000">t_start</text>
</g>
</g><g id="edge39" class="edge">
<title>t_start_7-&gt;ChangeCellType_7_8735360406832627035_0_16666666667</title>
<path fill="none" stroke="#112c5f" stroke-width="2" d="M3110.4375,-386.6125C3101.9221,-373.9544 3089.9226,-356.1174 3078.7155,-339.4582"></path>
<polygon fill="#112c5f" stroke="#112c5f" stroke-width="2" points="3081.4357,-337.2312 3072.9499,-330.8876 3075.6276,-341.1385 3081.4357,-337.2312"></polygon>
</g><g id="node41" class="node">
<title>tau_mu_7</title>
<g id="a_node41">
<ellipse fill="#d3d247" stroke="#000000" cx="3228" cy="-403.8" rx="40.0089" ry="18"></ellipse>
<text text-anchor="middle" x="3228" y="-399.6" font-family="Times,serif" font-size="14.00" fill="#000000">tau_mu</text>
</g>
</g><g id="edge44" class="edge">
<title>tau_mu_7-&gt;ChangeCellType_7_5845518840858594733_0_16666666667</title>
<path fill="none" stroke="#112c5f" stroke-width="2" d="M3235.4308,-385.6357C3240.4337,-373.4066 3247.276,-356.6809 3253.7513,-340.8523"></path>
<polygon fill="#112c5f" stroke="#112c5f" stroke-width="2" points="3257.169,-341.7416 3257.716,-331.1609 3250.6902,-339.0911 3257.169,-341.7416"></polygon>
</g><g id="node42" class="node">
<title>tau_sigma_7</title>
<g id="a_node42">
<ellipse fill="#d3d247" stroke="#000000" cx="3018" cy="-403.8" rx="50.9619" ry="18"></ellipse>
<text text-anchor="middle" x="3018" y="-399.6" font-family="Times,serif" font-size="14.00" fill="#000000">tau_sigma</text>
</g>
</g><g id="edge47" class="edge">
<title>tau_sigma_7-&gt;ChangeCellType_7_8735360406832627035_0_16666666667</title>
<path fill="none" stroke="#112c5f" stroke-width="2" d="M3022.9539,-385.6357C3026.2891,-373.4066 3030.8507,-356.6809 3035.1676,-340.8523"></path>
<polygon fill="#112c5f" stroke="#112c5f" stroke-width="2" points="3038.5561,-341.7295 3037.8107,-331.1609 3031.8027,-339.8876 3038.5561,-341.7295"></polygon>
</g><g id="node51" class="node">
<title>cSI_8</title>
<g id="a_node51">
<ellipse fill="#d3d247" stroke="#000000" cx="679" cy="-293.8" rx="27" ry="18"></ellipse>
<text text-anchor="middle" x="679" y="-289.6" font-family="Times,serif" font-size="14.00" fill="#000000">cSI</text>
</g>
</g><g id="edge7" class="edge">
<title>NeighborhoodReporter_8_281700879518160917_0_16666666667-&gt;cSI_8</title>
<path fill="none" stroke="#8f100d" stroke-width="3" d="M673.047,-366.559C674.2381,-352.0016 675.5813,-335.5847 676.6899,-322.0342"></path>
<polygon fill="#8f100d" stroke="#8f100d" stroke-width="3" points="680.1942,-322.124 677.5214,-311.8719 673.2175,-321.5531 680.1942,-322.124"></polygon>
</g><g id="node50" class="node">
<title>cSE_var_8</title>
<g id="a_node50">
<ellipse fill="#d3d247" stroke="#000000" cx="802" cy="-293.8" rx="44.0002" ry="18"></ellipse>
<text text-anchor="middle" x="802" y="-289.6" font-family="Times,serif" font-size="14.00" fill="#000000">cSE_var</text>
</g>
</g><g id="edge5" class="edge">
<title>NeighborhoodReporter_8_12691512747678031863_0_16666666667-&gt;cSE_var_8</title>
<path fill="none" stroke="#8f100d" stroke-width="3" d="M823.8277,-366.559C819.4172,-351.8574 814.4378,-335.2594 810.3498,-321.6326"></path>
<polygon fill="#8f100d" stroke="#8f100d" stroke-width="3" points="813.6475,-320.4444 807.4216,-311.8719 806.9427,-322.4559 813.6475,-320.4444"></polygon>
</g><g id="node52" class="node">
<title>cSS_8</title>
<g id="a_node52">
<ellipse fill="#d3d247" stroke="#000000" cx="607" cy="-293.8" rx="27" ry="18"></ellipse>
<text text-anchor="middle" x="607" y="-289.6" font-family="Times,serif" font-size="14.00" fill="#000000">cSS</text>
</g>
</g><g id="edge6" class="edge">
<title>NeighborhoodReporter_8_16835634623245943456_0_16666666667-&gt;cSS_8</title>
<path fill="none" stroke="#8f100d" stroke-width="3" d="M539.5325,-366.559C554.8446,-350.046 572.3751,-331.1405 585.7283,-316.7401"></path>
<polygon fill="#8f100d" stroke="#8f100d" stroke-width="3" points="588.4433,-318.9596 592.6763,-309.2471 583.3104,-314.2 588.4433,-318.9596"></polygon>
</g><g id="edge21" class="edge">
<title>cSE_var_8-&gt;ChangeCellType_8_13379088868927538511_0_16666666667</title>
<path fill="none" stroke="#112c5f" stroke-width="2" d="M797.1307,-275.6804C793.0478,-260.4868 787.0315,-238.0991 781.6096,-217.923"></path>
<polygon fill="#112c5f" stroke="#112c5f" stroke-width="2" points="784.9821,-216.9863 779.0068,-208.2373 778.222,-218.803 784.9821,-216.9863"></polygon>
</g><g id="edge22" class="edge">
<title>cSI_8-&gt;ChangeCellType_8_11963288805388677603_0_16666666667</title>
<path fill="none" stroke="#112c5f" stroke-width="2" d="M668.8427,-276.8446C662.4569,-267.4428 653.4569,-256.1928 643,-248.8 634.1626,-242.5521 630.06,-244.7916 620,-240.8 597.9195,-232.0389 574.3919,-221.9307 552.482,-212.1749"></path>
<polygon fill="#112c5f" stroke="#112c5f" stroke-width="2" points="553.7573,-208.9112 543.2,-208.0204 550.8976,-215.3004 553.7573,-208.9112"></polygon>
</g><g id="node53" class="node">
<title>t_birth_8</title>
<g id="a_node53">
<ellipse fill="#d3d247" stroke="#000000" cx="278" cy="-403.8" rx="36.5767" ry="18"></ellipse>
<text text-anchor="middle" x="278" y="-399.6" font-family="Times,serif" font-size="14.00" fill="#000000">t_birth</text>
</g>
</g><g id="edge36" class="edge">
<title>t_birth_8-&gt;ChangeCellType_8_4386970565050791103_0_16666666667</title>
<path fill="none" stroke="#112c5f" stroke-width="2" d="M296.2738,-387.9672C304.5094,-381.1328 314.5014,-373.2451 324,-366.8 339.7758,-356.0956 357.2245,-345.473 374.0567,-335.7814"></path>
<polygon fill="#112c5f" stroke="#112c5f" stroke-width="2" points="375.8362,-338.7957 382.7905,-330.8027 372.3695,-332.7144 375.8362,-338.7957"></polygon>
</g><g id="node54" class="node">
<title>t_start_8</title>
<g id="a_node54">
<ellipse fill="#d3d247" stroke="#000000" cx="59" cy="-403.8" rx="35.347" ry="18"></ellipse>
<text text-anchor="middle" x="59" y="-399.6" font-family="Times,serif" font-size="14.00" fill="#000000">t_start</text>
</g>
</g><g id="edge40" class="edge">
<title>t_start_8-&gt;ChangeCellType_8_12534182324976402541_0_16666666667</title>
<path fill="none" stroke="#112c5f" stroke-width="2" d="M76.1162,-387.5691C89.792,-374.6007 109.638,-355.7812 127.9673,-338.4"></path>
<polygon fill="#112c5f" stroke="#112c5f" stroke-width="2" points="130.8595,-340.4808 135.7075,-331.0602 126.0429,-335.4014 130.8595,-340.4808"></polygon>
</g><g id="node55" class="node">
<title>tau_epsilon_8</title>
<g id="a_node55">
<ellipse fill="#d3d247" stroke="#000000" cx="168" cy="-403.8" rx="55.6178" ry="18"></ellipse>
<text text-anchor="middle" x="168" y="-399.6" font-family="Times,serif" font-size="14.00" fill="#000000">tau_epsilon</text>
</g>
</g><g id="edge42" class="edge">
<title>tau_epsilon_8-&gt;ChangeCellType_8_12534182324976402541_0_16666666667</title>
<path fill="none" stroke="#112c5f" stroke-width="2" d="M169.1559,-385.6357C169.9268,-373.522 170.9784,-356.9961 171.9772,-341.3005"></path>
<polygon fill="#112c5f" stroke="#112c5f" stroke-width="2" points="175.4803,-341.363 172.6225,-331.1609 168.4944,-340.9184 175.4803,-341.363"></polygon>
</g><g id="node56" class="node">
<title>tau_mu_8</title>
<g id="a_node56">
<ellipse fill="#d3d247" stroke="#000000" cx="373" cy="-403.8" rx="40.0089" ry="18"></ellipse>
<text text-anchor="middle" x="373" y="-399.6" font-family="Times,serif" font-size="14.00" fill="#000000">tau_mu</text>
</g>
</g><g id="edge45" class="edge">
<title>tau_mu_8-&gt;ChangeCellType_8_4386970565050791103_0_16666666667</title>
<path fill="none" stroke="#112c5f" stroke-width="2" d="M385.5,-386.6125C394.7903,-373.8383 407.9166,-355.7896 420.1272,-339"></path>
<polygon fill="#112c5f" stroke="#112c5f" stroke-width="2" points="422.976,-341.0336 426.0272,-330.8876 417.3148,-336.9164 422.976,-341.0336"></polygon>
</g><g id="node59" class="node">
<title>t_birth_9</title>
<g id="a_node59">
<ellipse fill="#d3d247" stroke="#000000" cx="1553" cy="-171" rx="36.5767" ry="18"></ellipse>
<text text-anchor="middle" x="1553" y="-166.8" font-family="Times,serif" font-size="14.00" fill="#000000">t_birth</text>
</g>
</g><g id="edge37" class="edge">
<title>t_birth_9-&gt;ChangeCellType_9_1012917135305496873_0_16666666667</title>
<path fill="none" stroke="#112c5f" stroke-width="2" d="M1550.1928,-152.8357C1548.3207,-140.722 1545.7667,-124.1961 1543.341,-108.5005"></path>
<polygon fill="#112c5f" stroke="#112c5f" stroke-width="2" points="1546.7603,-107.709 1541.774,-98.3609 1539.8424,-108.7782 1546.7603,-107.709"></polygon>
</g><g id="node60" class="node">
<title>tau_mu_9</title>
<g id="a_node60">
<ellipse fill="#d3d247" stroke="#000000" cx="1458" cy="-171" rx="40.0089" ry="18"></ellipse>
<text text-anchor="middle" x="1458" y="-166.8" font-family="Times,serif" font-size="14.00" fill="#000000">tau_mu</text>
</g>
</g><g id="edge46" class="edge">
<title>tau_mu_9-&gt;ChangeCellType_9_1012917135305496873_0_16666666667</title>
<path fill="none" stroke="#112c5f" stroke-width="2" d="M1470.1875,-153.8125C1479.1632,-141.1544 1491.8113,-123.3174 1503.6242,-106.6582"></path>
<polygon fill="#112c5f" stroke="#112c5f" stroke-width="2" points="1506.7722,-108.2695 1509.7015,-98.0876 1501.0621,-104.2205 1506.7722,-108.2695"></polygon>
</g></g>
</svg>